TOTAL:,1
TOTALM:,1
TOTALF:,1
NAME,GENDER,COUNT,PERCENT,PROP100K,ISNOCOUNT,COMMENT
ANG,,1,0.001%,1.0,1,
AU-YONG,,1,0.001%,1.0,1,
BAI|白,,1,0.001%,1.0,1,
BAN,,1,0.001%,1.0,1,
BAO,,1,0.001%,1.0,1,
BEI,,1,0.001%,1.0,1,
BIAN,,1,0.001%,1.0,1,
BUI,,1,0.001%,1.0,1,
CAI,,1,0.001%,1.0,1,
CAO,,1,0.001%,1.0,1,
CEN,,1,0.001%,1.0,1,
CHAI,,1,0.001%,1.0,1,
CHAIM,,1,0.001%,1.0,1,
CHAN,,1,0.001%,1.0,1,
CHANG,,1,0.001%,1.0,1,
CHAO,,1,0.001%,1.0,1,
CHE,,1,0.001%,1.0,1,
CHEN|陈|TAN,,1,0.001%,1.0,1,
CHENG,,1,0.001%,1.0,1,
CHEUNG,,1,0.001%,1.0,1,
CHEW,,1,0.001%,1.0,1,
CHIEU,,1,0.001%,1.0,1,
CHIN,,1,0.001%,1.0,1,
CHONG|张|ZHANG,,1,0.001%,1.0,1,
CHOU,,1,0.001%,1.0,1,
CHU,,1,0.001%,1.0,1,
CUI,,1,0.001%,1.0,1,
DAI,,1,0.001%,1.0,1,
DENG,,1,0.001%,1.0,1,
DING,,1,0.001%,1.0,1,
DONG,,1,0.001%,1.0,1,
DOU,,1,0.001%,1.0,1,
DUAN,,1,0.001%,1.0,1,
ENG,,1,0.001%,1.0,1,
FAN,,1,0.001%,1.0,1,
FEI,,1,0.001%,1.0,1,
FENG,,1,0.001%,1.0,1,
FOONG,,1,0.001%,1.0,1,
FUNG,,1,0.001%,1.0,1,
GAN,,1,0.001%,1.0,1,
GAUK,,1,0.001%,1.0,1,
GENG,,1,0.001%,1.0,1,
GIM,,1,0.001%,1.0,1,
GOK,,1,0.001%,1.0,1,
GONG,,1,0.001%,1.0,1,
GUAN|关,,1,0.001%,1.0,1,
GUANG,,1,0.001%,1.0,1,
GUO,,1,0.001%,1.0,1,
GWOCK,,1,0.001%,1.0,1,
HAN|韩,,1,0.001%,1.0,1,
HANG,,1,0.001%,1.0,1,
HAO,,1,0.001%,1.0,1,
HEW,,1,0.001%,1.0,1,
HIU,,1,0.001%,1.0,1,
HONG,,1,0.001%,1.0,1,
HOR,,1,0.001%,1.0,1,
HSIAO,,1,0.001%,1.0,1,
HUA,,1,0.001%,1.0,1,
HUAN,,1,0.001%,1.0,1,
HUANG|黄,,1,0.001%,1.0,1,
HUI,,1,0.001%,1.0,1,
HUIE,,1,0.001%,1.0,1,
HUO,,1,0.001%,1.0,1,
JIA,,1,0.001%,1.0,1,
JIANG|姜,,1,0.001%,1.0,1,
JIN,,1,0.001%,1.0,1,
JING,,1,0.001%,1.0,1,
JOE,,1,0.001%,1.0,1,
KANG,,1,0.001%,1.0,1,
KAU,,1,0.001%,1.0,1,
KHOO,,1,0.001%,1.0,1,
KHU,,1,0.001%,1.0,1,
KONG,,1,0.001%,1.0,1,
KOO,,1,0.001%,1.0,1,
KWAN,,1,0.001%,1.0,1,
KWEI,,1,0.001%,1.0,1,
KWONG,,1,0.001%,1.0,1,
LAI,,1,0.001%,1.0,1,
LAM,,1,0.001%,1.0,1,
LANG,,1,0.001%,1.0,1,
LAU|刘,,1,0.001%,1.0,1,
LAW,,1,0.001%,1.0,1,
LEW,,1,0.001%,1.0,1,
LIAN,,1,0.001%,1.0,1,
LIAO|廖,,1,0.001%,1.0,1,
LIM,,1,0.001%,1.0,1,
LIN|林,,1,0.001%,1.0,1,
LING,,1,0.001%,1.0,1,
LIU,,1,0.001%,1.0,1,
LOH,,1,0.001%,1.0,1,
LONG,,1,0.001%,1.0,1,
LOONG,,1,0.001%,1.0,1,
LUO,,1,0.001%,1.0,1,
MAH|马,,1,0.001%,1.0,1,
MAI,,1,0.001%,1.0,1,
MAK,,1,0.001%,1.0,1,
MAO,,1,0.001%,1.0,1,
MAR,,1,0.001%,1.0,1,
MEI,,1,0.001%,1.0,1,
MENG,,1,0.001%,1.0,1,
MIAO,,1,0.001%,1.0,1,
MIN,,1,0.001%,1.0,1,
MING,,1,0.001%,1.0,1,
MOY,,1,0.001%,1.0,1,
MUI,,1,0.001%,1.0,1,
NIE,,1,0.001%,1.0,1,
NIU,,1,0.001%,1.0,1,
OU-YANG,,1,0.001%,1.0,1,
OW-YANG,,1,0.001%,1.0,1,
PAN,,1,0.001%,1.0,1,
PANG,,1,0.001%,1.0,1,
PEI,,1,0.001%,1.0,1,
PENG,,1,0.001%,1.0,1,
PING,,1,0.001%,1.0,1,
QIAN,,1,0.001%,1.0,1,
QIN,,1,0.001%,1.0,1,
QIU,,1,0.001%,1.0,1,
QUAN,,1,0.001%,1.0,1,
QUE,,1,0.001%,1.0,1,
RAN,,1,0.001%,1.0,1,
RAO,,1,0.001%,1.0,1,
RONG,,1,0.001%,1.0,1,
RUAN|阮,,1,0.001%,1.0,1,
SAM,,1,0.001%,1.0,1,
SEAH,,1,0.001%,1.0,1,
SEE,,1,0.001%,1.0,1,
SEOW,,1,0.001%,1.0,1,
SETO,,1,0.001%,1.0,1,
SHA,,1,0.001%,1.0,1,
SHAN,,1,0.001%,1.0,1,
SHANG,,1,0.001%,1.0,1,
SHAO,,1,0.001%,1.0,1,
SHAW,,1,0.001%,1.0,1,
SHE,,1,0.001%,1.0,1,
SHEN,,1,0.001%,1.0,1,
SHENG,,1,0.001%,1.0,1,
SHI,,1,0.001%,1.0,1,
SHU,,1,0.001%,1.0,1,
SHUAI,,1,0.001%,1.0,1,
SHUI,,1,0.001%,1.0,1,
SHUM,,1,0.001%,1.0,1,
SIEW,,1,0.001%,1.0,1,
SIU,,1,0.001%,1.0,1,
SONG,,1,0.001%,1.0,1,
SUM,,1,0.001%,1.0,1,
SUN|孙,,1,0.001%,1.0,1,
SZE,,1,0.001%,1.0,1,
TAN|CHEN|陈,,1,0.001%,1.0,1,
TANG,,1,0.001%,1.0,1,
TAO,,1,0.001%,1.0,1,
TENG,,1,0.001%,1.0,1,
TEOH,,1,0.001%,1.0,1,
THEAN,,1,0.001%,1.0,1,
THIAN,,1,0.001%,1.0,1,
THIEN,,1,0.001%,1.0,1,
TIAN,,1,0.001%,1.0,1,
TONG,,1,0.001%,1.0,1,
TOW,,1,0.001%,1.0,1,
TSANG,,1,0.001%,1.0,1,
TSE,,1,0.001%,1.0,1,
TSEN,,1,0.001%,1.0,1,
TSO,,1,0.001%,1.0,1,
TZE,,1,0.001%,1.0,1,
WAN,,1,0.001%,1.0,1,
WANG|王|WONG,,1,0.001%,1.0,1,
WEI,,1,0.001%,1.0,1,
WEN,,1,0.001%,1.0,1,
WENG,,1,0.001%,1.0,1,
WON,,1,0.001%,1.0,1,
WONG|WANG|王,,1,0.001%,1.0,1,
WOO,,1,0.001%,1.0,1,
XIANG,,1,0.001%,1.0,1,
XIAO,,1,0.001%,1.0,1,
XIE,,1,0.001%,1.0,1,
XING,,1,0.001%,1.0,1,
XUE,,1,0.001%,1.0,1,
XUN|荀,,1,0.001%,1.0,1,
YAN,,1,0.001%,1.0,1,
YANG,,1,0.001%,1.0,1,
YAO,,1,0.001%,1.0,1,
YAP,,1,0.001%,1.0,1,
YAU,,1,0.001%,1.0,1,
YEE,,1,0.001%,1.0,1,
YEP,,1,0.001%,1.0,1,
YIM,,1,0.001%,1.0,1,
YIN,,1,0.001%,1.0,1,
YING,,1,0.001%,1.0,1,
YONG,,1,0.001%,1.0,1,
YOU,,1,0.001%,1.0,1,
YUAN,,1,0.001%,1.0,1,
ZANG,,1,0.001%,1.0,1,
ZENG,,1,0.001%,1.0,1,
ZHA,,1,0.001%,1.0,1,
ZHAN,,1,0.001%,1.0,1,
ZHANG|CHONG|张,,1,0.001%,1.0,1,
ZHAO,,1,0.001%,1.0,1,
ZHEN,,1,0.001%,1.0,1,
ZHENG|郑,,1,0.001%,1.0,1,
ZHONG,,1,0.001%,1.0,1,
ZHOU,,1,0.001%,1.0,1,
ZHU|朱,,1,0.001%,1.0,1,
ZHUO,,1,0.001%,1.0,1,
ZONG,,1,0.001%,1.0,1,
ZOU,,1,0.001%,1.0,1,
BING,,1,0.001%,1.0,1,
CHI,,1,0.001%,1.0,1,
CONG,,1,0.001%,1.0,1,
CUAN,,1,0.001%,1.0,1,
DAN,,1,0.001%,1.0,1,
GAI,,1,0.001%,1.0,1,
GAO,,1,0.001%,1.0,1,
GOU,,1,0.001%,1.0,1,
GUI,,1,0.001%,1.0,1,
HOU,,1,0.001%,1.0,1,
JIAN,,1,0.001%,1.0,1,
JIAO,,1,0.001%,1.0,1,
JIU,,1,0.001%,1.0,1,
JUAN,,1,0.001%,1.0,1,
JUE,,1,0.001%,1.0,1,
KAN,,1,0.001%,1.0,1,
KUAI,,1,0.001%,1.0,1,
KUANG|邝,,1,0.001%,1.0,1,
KUI,,1,0.001%,1.0,1,
LAO,,1,0.001%,1.0,1,
LIANG,,1,0.001%,1.0,1,
LU:,,1,0.001%,1.0,1,
MAN,,1,0.001%,1.0,1,
NAO,,1,0.001%,1.0,1,
PIAN,,1,0.001%,1.0,1,
QIAO,,1,0.001%,1.0,1,
QING,,1,0.001%,1.0,1,
RANG,,1,0.001%,1.0,1,
RUI,,1,0.001%,1.0,1,
SHUO,,1,0.001%,1.0,1,
SUI,,1,0.001%,1.0,1,
TAI,,1,0.001%,1.0,1,
XIAN,,1,0.001%,1.0,1,
XIN,,1,0.001%,1.0,1,
XIONG,,1,0.001%,1.0,1,
XUAN,,1,0.001%,1.0,1,
YUE,,1,0.001%,1.0,1,
YUN,,1,0.001%,1.0,1,
ZHAI,,1,0.001%,1.0,1,
ZHI,,1,0.001%,1.0,1,
ZHUAN,,1,0.001%,1.0,1,
ZHUI,,1,0.001%,1.0,1,
