TOTAL:,1
TOTALM:,1
TOTALF:,1
NAME,GENDER,COUNT,PERCENT,PROP100K,ISNOCOUNT,COMMENT
ANTONOV|АНТОНОВ,,1,0.001%,1.0,1,
GAVRILYUK,,1,0.001%,1.0,1,
IVANOV|ИВАНОВ,,1,0.001%,1.0,1,
KOHUT,,1,0.001%,1.0,1,
PASTERNAK|ПАСТЕРНАК,,1,0.001%,1.0,1,
SHWETZ,,1,0.001%,1.0,1,
STASIUK,,1,0.001%,1.0,1,
VASYLYSHYN|ВАСИЛИШИН,,1,0.001%,1.0,1,
ZIMA|ЗИМА,,1,0.001%,1.0,1,
