TOTAL:,1
TOTALM:,1
TOTALF:,1
NAME,GENDER,COUNT,PERCENT,PROP100K,ISNOCOUNT,COMMENT
ABELE,M,1,0.001%,1.0,1,
#ACHILLE,M,1,0.001%,1.0,1,
ADALBERTO,M,1,0.001%,1.0,1,
ADELAIDE,F,1,0.001%,1.0,1,
#ADELE,F,1,0.001%,1.0,1,
ADEMARO,M,1,0.001%,1.0,1,
ADRIANA,F,1,0.001%,1.0,1,
AGAPITO,M,1,0.001%,1.0,1,
#AGNESE,F,1,0.001%,1.0,1,
AGOSTINO,M,1,0.001%,1.0,1,
ALBANO,M,1,0.001%,1.0,1,
ALBERTA,F,1,0.001%,1.0,1,
#ALBERTO,M,1,0.001%,1.0,1,
ALBINO,M,1,0.001%,1.0,1,
ALDA,F,1,0.001%,1.0,1,
ALE,U,1,0.001%,1.0,1,
#ALESSANDRA,F,1,0.001%,1.0,1,
#ALESSIA,F,1,0.001%,1.0,1,
#ALEX,U,1,0.001%,1.0,1,
ALFEO,M,1,0.001%,1.0,1,
ALFONSO,M,1,0.001%,1.0,1,
ALFREDO,M,1,0.001%,1.0,1,
ALINA,F,1,0.001%,1.0,1,
ALMA,F,1,0.001%,1.0,1,
ALONZO,M,1,0.001%,1.0,1,
AMADEO,M,1,0.001%,1.0,1,
AMANDA,F,1,0.001%,1.0,1,
AMARANTA,F,1,0.001%,1.0,1,
AMATORE,M,1,0.001%,1.0,1,
AMBROGINO,M,1,0.001%,1.0,1,
AMEDEA,F,1,0.001%,1.0,1,
#AMELIA,F,1,0.001%,1.0,1,
AMILCARE,M,1,0.001%,1.0,1,
AMPELIO,M,1,0.001%,1.0,1,
#ANASTASIA,F,1,0.001%,1.0,1,
#ANDREA,M,1,0.001%,1.0,1,
#ANDRIA,M,1,0.001%,1.0,1,
#ANGELICA,F,1,0.001%,1.0,1,
ANGELINO,M,1,0.001%,1.0,1,
ANGHELA|ÀNGHELA,F,1,0.001%,1.0,1,
ANGIOLO,M,1,0.001%,1.0,1,
ANNABELLA,F,1,0.001%,1.0,1,
ANNAMARIA,F,1,0.001%,1.0,1,
ANNIBALE,M,1,0.001%,1.0,1,
ANNUNZIATA,F,1,0.001%,1.0,1,
ANSALDO,M,1,0.001%,1.0,1,
ANSELMO,M,1,0.001%,1.0,1,
ANTONELLA,F,1,0.001%,1.0,1,
ANTONIA,F,1,0.001%,1.0,1,
ANTONINA,F,1,0.001%,1.0,1,
#ANTONIO,M,1,0.001%,1.0,1,
ARCANGELO,M,1,0.001%,1.0,1,
ARDUINO,M,1,0.001%,1.0,1,
ARISTIDE,M,1,0.001%,1.0,1,
ARMIDA,F,1,0.001%,1.0,1,
ARNOLFO,M,1,0.001%,1.0,1,
ARRIGO,M,1,0.001%,1.0,1,
ARTEMIO,M,1,0.001%,1.0,1,
#ASIA,F,1,0.001%,1.0,1,
ATTILIO,M,1,0.001%,1.0,1,
AUGUSTO,M,1,0.001%,1.0,1,
AURELIANA,F,1,0.001%,1.0,1,
AURELIO,M,1,0.001%,1.0,1,
#AZZURRA,F,1,0.001%,1.0,1,
BALBINO,M,1,0.001%,1.0,1,
BALDO,M,1,0.001%,1.0,1,
BARBARA,F,1,0.001%,1.0,1,
BARTOLOMEO,M,1,0.001%,1.0,1,
BATTISTA,M,1,0.001%,1.0,1,
#BENEDETTA,F,1,0.001%,1.0,1,
BENIAMINO,M,1,0.001%,1.0,1,
BENIGNO,M,1,0.001%,1.0,1,
BENVENUTO,M,1,0.001%,1.0,1,
BERARDO,M,1,0.001%,1.0,1,
BERNARDETTA,F,1,0.001%,1.0,1,
BERNARDINO,M,1,0.001%,1.0,1,
BERTA,F,1,0.001%,1.0,1,
BERTOLDO,M,1,0.001%,1.0,1,
BETTINA,F,1,0.001%,1.0,1,
BIAGGIO,M,1,0.001%,1.0,1,
BIAGIO,M,1,0.001%,1.0,1,
BIBIANA,F,1,0.001%,1.0,1,
BONACCORSO,M,1,0.001%,1.0,1,
BONIFACIO,M,1,0.001%,1.0,1,
BRUNA,F,1,0.001%,1.0,1,
BRUNILDA,F,1,0.001%,1.0,1,
CADERINA,F,1,0.001%,1.0,1,
CALOGERA,F,1,0.001%,1.0,1,
#CAMILLA,F,1,0.001%,1.0,1,
CARLA,F,1,0.001%,1.0,1,
#CARLOTTA,F,1,0.001%,1.0,1,
CARMELO,M,1,0.001%,1.0,1,
CARMINA,F,1,0.001%,1.0,1,
#CAROLA,F,1,0.001%,1.0,1,
CASIMIRO,M,1,0.001%,1.0,1,
#CATERINA,F,1,0.001%,1.0,1,
CECILIO,M,1,0.001%,1.0,1,
CELESTINA,F,1,0.001%,1.0,1,
CELINO,M,1,0.001%,1.0,1,
CELSO,M,1,0.001%,1.0,1,
CESARINA,F,1,0.001%,1.0,1,
#CHIARA,F,1,0.001%,1.0,1,
CINZIA,F,1,0.001%,1.0,1,
CIRIACO,M,1,0.001%,1.0,1,
CIRINO,M,1,0.001%,1.0,1,
#CLARA,F,1,0.001%,1.0,1,
CLARISSA,F,1,0.001%,1.0,1,
#CLAUDIO,M,1,0.001%,1.0,1,
CLEMENTE,M,1,0.001%,1.0,1,
CLETO,M,1,0.001%,1.0,1,
#CLOE,F,1,0.001%,1.0,1,
COLOMBA,F,1,0.001%,1.0,1,
COLOMBINA,F,1,0.001%,1.0,1,
CONCETTA,F,1,0.001%,1.0,1,
CONCETTO,M,1,0.001%,1.0,1,
CORNELIA,F,1,0.001%,1.0,1,
CORONA,F,1,0.001%,1.0,1,
CORRADO,M,1,0.001%,1.0,1,
COSIMO,M,1,0.001%,1.0,1,
COSTANTINO,M,1,0.001%,1.0,1,
CRESCENZO,M,1,0.001%,1.0,1,
#CRISTIANO,M,1,0.001%,1.0,1,
CRISTOFORO,M,1,0.001%,1.0,1,
CROCIFISSA,F,1,0.001%,1.0,1,
DAMIANA,F,1,0.001%,1.0,1,
DANIA,F,1,0.001%,1.0,1,
#DANIELE,M,1,0.001%,1.0,1,
DANTE,M,1,0.001%,1.0,1,
#DARIO,M,1,0.001%,1.0,1,
DEBORA,F,1,0.001%,1.0,1,
DELIA,F,1,0.001%,1.0,1,
DEMETRIO,M,1,0.001%,1.0,1,
DESIDERIO,M,1,0.001%,1.0,1,
DINA,F,1,0.001%,1.0,1,
DIODATO,M,1,0.001%,1.0,1,
DIONISIO,M,1,0.001%,1.0,1,
#DOMENICO,M,1,0.001%,1.0,1,
DONATA,F,1,0.001%,1.0,1,
DONATELLO,M,1,0.001%,1.0,1,
DORA,F,1,0.001%,1.0,1,
DORIANO,M,1,0.001%,1.0,1,
DUILIO,M,1,0.001%,1.0,1,
EDDA,F,1,0.001%,1.0,1,
EDMONDA,F,1,0.001%,1.0,1,
#EDOARDO,M,1,0.001%,1.0,1,
EFISIO,M,1,0.001%,1.0,1,
ELDA,F,1,0.001%,1.0,1,
#ELENE,F,1,0.001%,1.0,1,
ELETTRA,F,1,0.001%,1.0,1,
#ELIA,M,1,0.001%,1.0,1,
ELIGIO,M,1,0.001%,1.0,1,
#ELISA,F,1,0.001%,1.0,1,
ELISEO,M,1,0.001%,1.0,1,
ELOISA,F,1,0.001%,1.0,1,
ELSA,F,1,0.001%,1.0,1,
EMANUELA,F,1,0.001%,1.0,1,
EMIDIO,M,1,0.001%,1.0,1,
EMILIANA,F,1,0.001%,1.0,1,
EMILIO,M,1,0.001%,1.0,1,
ENNIO,M,1,0.001%,1.0,1,
#ENRICO,M,1,0.001%,1.0,1,
EPIFANIO,M,1,0.001%,1.0,1,
ERCOLE,M,1,0.001%,1.0,1,
#ERIKA,F,1,0.001%,1.0,1,
ERMELINDA,F,1,0.001%,1.0,1,
ERMENEGILDO,M,1,0.001%,1.0,1,
ERMETE,M,1,0.001%,1.0,1,
ERMINIO,M,1,0.001%,1.0,1,
ERNESTINA,F,1,0.001%,1.0,1,
ERSILIA,F,1,0.001%,1.0,1,
#ETTORE,M,1,0.001%,1.0,1,
EUGENIA,F,1,0.001%,1.0,1,
EULALIA,F,1,0.001%,1.0,1,
EUSTACHIO,M,1,0.001%,1.0,1,
EUTIMIO,M,1,0.001%,1.0,1,
EVARISTO,M,1,0.001%,1.0,1,
EZIO,M,1,0.001%,1.0,1,
FABIANA,F,1,0.001%,1.0,1,
#FABIO,M,1,0.001%,1.0,1,
FABRIZIA,F,1,0.001%,1.0,1,
FAUSTA,F,1,0.001%,1.0,1,
FAUSTINO,M,1,0.001%,1.0,1,
FEBE,F,1,0.001%,1.0,1,
#FEDERICA,F,1,0.001%,1.0,1,
FEDERIGO,M,1,0.001%,1.0,1,
FELICIANA,F,1,0.001%,1.0,1,
FELICITA,F,1,0.001%,1.0,1,
FERDINANDO,M,1,0.001%,1.0,1,
FERRUCCIO,M,1,0.001%,1.0,1,
FILIBERTO,M,1,0.001%,1.0,1,
#FILIPPO,M,1,0.001%,1.0,1,
FINA,F,1,0.001%,1.0,1,
FIORE,U,1,0.001%,1.0,1,
FIORENZA,F,1,0.001%,1.0,1,
FIORINO,M,1,0.001%,1.0,1,
#FLAVIA,F,1,0.001%,1.0,1,
FLAVIANO,M,1,0.001%,1.0,1,
FLORA,F,1,0.001%,1.0,1,
FLORIANO,M,1,0.001%,1.0,1,
FORTUNATO,M,1,0.001%,1.0,1,
#FRANCESCA,F,1,0.001%,1.0,1,
FRANCO,M,1,0.001%,1.0,1,
#FRANTZISCU,M,1,0.001%,1.0,1,
FREDO,M,1,0.001%,1.0,1,
FULVIA,F,1,0.001%,1.0,1,
#GABRIELE,M,1,0.001%,1.0,1,
GAETANA,F,1,0.001%,1.0,1,
#GAIA,F,1,0.001%,1.0,1,
GASPARE,M,1,0.001%,1.0,1,
GASTONE,M,1,0.001%,1.0,1,
GELTRUDE,F,1,0.001%,1.0,1,
GENNARINO,M,1,0.001%,1.0,1,
GENOVEFFA,F,1,0.001%,1.0,1,
GERARDO,M,1,0.001%,1.0,1,
GERMANO,M,1,0.001%,1.0,1,
GERVASIO,M,1,0.001%,1.0,1,
GHERARDO,M,1,0.001%,1.0,1,
GIACINTA,F,1,0.001%,1.0,1,
GIACOBBE,M,1,0.001%,1.0,1,
GIACOMINA,F,1,0.001%,1.0,1,
#GIADA,F,1,0.001%,1.0,1,
GIAMPAOLO,M,1,0.001%,1.0,1,
GIAN,M,1,0.001%,1.0,1,
GIANFRANCO,M,1,0.001%,1.0,1,
GIANLUIGI,M,1,0.001%,1.0,1,
GIANMARIA,M,1,0.001%,1.0,1,
GIANNI,M,1,0.001%,1.0,1,
GIANNINO,M,1,0.001%,1.0,1,
GIANPIERO,M,1,0.001%,1.0,1,
GILBERTO,M,1,0.001%,1.0,1,
GINA,F,1,0.001%,1.0,1,
GINO,M,1,0.001%,1.0,1,
GIOACHINO,M,1,0.001%,1.0,1,
GIOCONDA,F,1,0.001%,1.0,1,
#GIOIA,F,1,0.001%,1.0,1,
GIORDANO,M,1,0.001%,1.0,1,
GIORGINA,F,1,0.001%,1.0,1,
#GIORGIO,M,1,0.001%,1.0,1,
GIOSUE|GIOSUÈ,M,1,0.001%,1.0,1,
GIOVANNA,F,1,0.001%,1.0,1,
#GIOVANNI,M,1,0.001%,1.0,1,
GIROLAMO,M,1,0.001%,1.0,1,
GIUANNA,F,1,0.001%,1.0,1,
GIUDITTA,F,1,0.001%,1.0,1,
GIULIANA,F,1,0.001%,1.0,1,
GIULIETTA,F,1,0.001%,1.0,1,
GIUSEPPA,F,1,0.001%,1.0,1,
GIUSEPPINA,F,1,0.001%,1.0,1,
GIUSTINO,M,1,0.001%,1.0,1,
#GLORIA,F,1,0.001%,1.0,1,
GRAZIA,F,1,0.001%,1.0,1,
GRAZIANO,M,1,0.001%,1.0,1,
GREGORIO,M,1,0.001%,1.0,1,
GUERINO,M,1,0.001%,1.0,1,
GUIDO,M,1,0.001%,1.0,1,
IACOPO,M,1,0.001%,1.0,1,
IGNATZIU|IGNÀTZIU,M,1,0.001%,1.0,1,
#ILARIA,F,1,0.001%,1.0,1,
ILDA,F,1,0.001%,1.0,1,
IMELDA,F,1,0.001%,1.0,1,
IMMACOLATA,F,1,0.001%,1.0,1,
INNOCENZO,M,1,0.001%,1.0,1,
IPPOLITO,M,1,0.001%,1.0,1,
IRMA,F,1,0.001%,1.0,1,
#ISABELLA,F,1,0.001%,1.0,1,
ISIDORA,F,1,0.001%,1.0,1,
ISOTTA,F,1,0.001%,1.0,1,
ITALIA,F,1,0.001%,1.0,1,
#IVAN,M,1,0.001%,1.0,1,
IVO,M,1,0.001%,1.0,1,
JESSICA,F,1,0.001%,1.0,1,
#JUANNE,M,1,0.001%,1.0,1,
LAMBERTO,M,1,0.001%,1.0,1,
#LARA,F,1,0.001%,1.0,1,
LAURETTA,F,1,0.001%,1.0,1,
LAZZARO,M,1,0.001%,1.0,1,
LEANDRO,M,1,0.001%,1.0,1,
LELIO,M,1,0.001%,1.0,1,
LEONARDA,F,1,0.001%,1.0,1,
LEONE,M,1,0.001%,1.0,1,
LEONORA,F,1,0.001%,1.0,1,
LEONZIO,M,1,0.001%,1.0,1,
#LETIZIA,F,1,0.001%,1.0,1,
LIA,F,1,0.001%,1.0,1,
LIBERATORE,M,1,0.001%,1.0,1,
LIBORIO,M,1,0.001%,1.0,1,
LILIA,F,1,0.001%,1.0,1,
LINA,F,1,0.001%,1.0,1,
LINO,M,1,0.001%,1.0,1,
LIVIA,F,1,0.001%,1.0,1,
LIVIO,M,1,0.001%,1.0,1,
LORA,F,1,0.001%,1.0,1,
LORENA,F,1,0.001%,1.0,1,
#LORENZO,M,1,0.001%,1.0,1,
LORETO,U,1,0.001%,1.0,1,
#LORIS,M,1,0.001%,1.0,1,
LOTARIO,M,1,0.001%,1.0,1,
#LUCA,M,1,0.001%,1.0,1,
#LUCIA,F,1,0.001%,1.0,1,
LUCIANO,M,1,0.001%,1.0,1,
LUCILLA,F,1,0.001%,1.0,1,
#LUCREZIA,F,1,0.001%,1.0,1,
#LUDOVICO,M,1,0.001%,1.0,1,
LUIGIA,F,1,0.001%,1.0,1,
LUIGINO,M,1,0.001%,1.0,1,
LUISELLA,F,1,0.001%,1.0,1,
MAFALDA,F,1,0.001%,1.0,1,
MANLIO,M,1,0.001%,1.0,1,
MANUELA,F,1,0.001%,1.0,1,
MARCELLA,F,1,0.001%,1.0,1,
MARCELLO,M,1,0.001%,1.0,1,
#MARCO,M,1,0.001%,1.0,1,
#MARIA,U,1,0.001%,1.0,1,
#MARIANNA,F,1,0.001%,1.0,1,
MARIELLA,F,1,0.001%,1.0,1,
MARILENA,F,1,0.001%,1.0,1,
MARINELLA,F,1,0.001%,1.0,1,
#MARIO,M,1,0.001%,1.0,1,
MARISTELLA,F,1,0.001%,1.0,1,
#MARTA,F,1,0.001%,1.0,1,
#MARTINO,M,1,0.001%,1.0,1,
MARZIO,M,1,0.001%,1.0,1,
#MASSIMO,M,1,0.001%,1.0,1,
MATTEA,F,1,0.001%,1.0,1,
#MATTIA,M,1,0.001%,1.0,1,
MAURIZIO,M,1,0.001%,1.0,1,
MELANIA,F,1,0.001%,1.0,1,
MERCURIO,M,1,0.001%,1.0,1,
#MICHELA,F,1,0.001%,1.0,1,
MICHELANGELO,M,1,0.001%,1.0,1,
MICHELINA,F,1,0.001%,1.0,1,
MIMI,F,1,0.001%,1.0,1,
MIRELLA,F,1,0.001%,1.0,1,
MIRTA,F,1,0.001%,1.0,1,
MONICA,F,1,0.001%,1.0,1,
NALDO,M,1,0.001%,1.0,1,
NARCISA,F,1,0.001%,1.0,1,
NATALE,M,1,0.001%,1.0,1,
NATANAELE,M,1,0.001%,1.0,1,
NAZZARENO,M,1,0.001%,1.0,1,
NERINA,F,1,0.001%,1.0,1,
NERO,M,1,0.001%,1.0,1,
NEVIO,M,1,0.001%,1.0,1,
NICO,M,1,0.001%,1.0,1,
#NICOLA,M,1,0.001%,1.0,1,
NICOLETTA,F,1,0.001%,1.0,1,
NICOLO|NICOLÒ,M,1,0.001%,1.0,1,
NICOSTRATO,M,1,0.001%,1.0,1,
NINO,M,1,0.001%,1.0,1,
NOE|NOÈ,M,1,0.001%,1.0,1,
NORA,F,1,0.001%,1.0,1,
NORINA,F,1,0.001%,1.0,1,
NUNZIA,F,1,0.001%,1.0,1,
NUNZIO,M,1,0.001%,1.0,1,
OFELIA,F,1,0.001%,1.0,1,
OLIMPIA,F,1,0.001%,1.0,1,
OLIVIERO,M,1,0.001%,1.0,1,
ONOFRIO,M,1,0.001%,1.0,1,
ORFEO,M,1,0.001%,1.0,1,
ORIANA,F,1,0.001%,1.0,1,
ORLANDO,M,1,0.001%,1.0,1,
ORSINA,F,1,0.001%,1.0,1,
ORSO,M,1,0.001%,1.0,1,
OSANNA,F,1,0.001%,1.0,1,
OSVALDO,M,1,0.001%,1.0,1,
OTTAVIANO,M,1,0.001%,1.0,1,
OTTONE,M,1,0.001%,1.0,1,
OVIDIO,M,1,0.001%,1.0,1,
PALMIRO,M,1,0.001%,1.0,1,
PANFILO,M,1,0.001%,1.0,1,
PAOLA,F,1,0.001%,1.0,1,
PAOLINO,M,1,0.001%,1.0,1,
PARIDE,M,1,0.001%,1.0,1,
PASQUALINA,F,1,0.001%,1.0,1,
PATRIZIA,F,1,0.001%,1.0,1,
PAULA|PÀULA,F,1,0.001%,1.0,1,
PEDRU,M,1,0.001%,1.0,1,
PEPPE,M,1,0.001%,1.0,1,
PEPPINO,M,1,0.001%,1.0,1,
PERLITA,F,1,0.001%,1.0,1,
PIA,F,1,0.001%,1.0,1,
PIERA,F,1,0.001%,1.0,1,
PIERINO,M,1,0.001%,1.0,1,
PIETRA,F,1,0.001%,1.0,1,
#PIETRO,M,1,0.001%,1.0,1,
PINO,M,1,0.001%,1.0,1,
PLACIDA,F,1,0.001%,1.0,1,
PLINIO,M,1,0.001%,1.0,1,
PONZIO,M,1,0.001%,1.0,1,
PRIMO,M,1,0.001%,1.0,1,
PROSPERO,M,1,0.001%,1.0,1,
QUIRINO,M,1,0.001%,1.0,1,
#RAFFAELE,M,1,0.001%,1.0,1,
RAFFAELLO,M,1,0.001%,1.0,1,
RAIMONDO,M,1,0.001%,1.0,1,
RAOUL,M,1,0.001%,1.0,1,
#REBECCA,F,1,0.001%,1.0,1,
REMIGIO,M,1,0.001%,1.0,1,
RENATA,F,1,0.001%,1.0,1,
RENZO,M,1,0.001%,1.0,1,
#RICCARDO,M,1,0.001%,1.0,1,
RINA,F,1,0.001%,1.0,1,
RINO,M,1,0.001%,1.0,1,
#ROBERTA,F,1,0.001%,1.0,1,
#ROBERTO,M,1,0.001%,1.0,1,
RODOLFO,M,1,0.001%,1.0,1,
ROLANDO,M,1,0.001%,1.0,1,
ROMANO,M,1,0.001%,1.0,1,
ROMILDA,U,1,0.001%,1.0,1,
ROMOLA,F,1,0.001%,1.0,1,
#ROSA,F,1,0.001%,1.0,1,
ROSALIA,F,1,0.001%,1.0,1,
ROSANGELA,F,1,0.001%,1.0,1,
ROSARIA,F,1,0.001%,1.0,1,
ROSELLA,F,1,0.001%,1.0,1,
ROSINA,F,1,0.001%,1.0,1,
ROSSANA,F,1,0.001%,1.0,1,
RUBINA,F,1,0.001%,1.0,1,
RUGGERO,M,1,0.001%,1.0,1,
SABINA,F,1,0.001%,1.0,1,
#SABRINA,F,1,0.001%,1.0,1,
SALVATRICE,F,1,0.001%,1.0,1,
SAMANTHA,F,1,0.001%,1.0,1,
#SAMUELE,M,1,0.001%,1.0,1,
SANDRO,M,1,0.001%,1.0,1,
SANTA,F,1,0.001%,1.0,1,
SANTINO,M,1,0.001%,1.0,1,
SANTUZZA,F,1,0.001%,1.0,1,
SATURNINO,M,1,0.001%,1.0,1,
SAVERIO,M,1,0.001%,1.0,1,
SAVINO,M,1,0.001%,1.0,1,
SCEVOLA,M,1,0.001%,1.0,1,
SEBASTIANA,F,1,0.001%,1.0,1,
SELVAGGIA,F,1,0.001%,1.0,1,
SERAFINO,M,1,0.001%,1.0,1,
SERGIO,M,1,0.001%,1.0,1,
SETTIMIO,M,1,0.001%,1.0,1,
SEVERINA,F,1,0.001%,1.0,1,
SEVERO,M,1,0.001%,1.0,1,
SIGFRIDO,M,1,0.001%,1.0,1,
SILVANO,M,1,0.001%,1.0,1,
SILVESTRO,M,1,0.001%,1.0,1,
SILVIO,M,1,0.001%,1.0,1,
#SIMONE,M,1,0.001%,1.0,1,
SISTO,M,1,0.001%,1.0,1,
SONIA,F,1,0.001%,1.0,1,
#STEFANO,M,1,0.001%,1.0,1,
SUSANNA,F,1,0.001%,1.0,1,
TACITO,M,1,0.001%,1.0,1,
TAIDE,F,1,0.001%,1.0,1,
TAMMARO,M,1,0.001%,1.0,1,
TANIA,F,1,0.001%,1.0,1,
TECLA,F,1,0.001%,1.0,1,
TEOBALDO,M,1,0.001%,1.0,1,
TEODORO,M,1,0.001%,1.0,1,
TEOFILA,F,1,0.001%,1.0,1,
TERENZIO,M,1,0.001%,1.0,1,
TERZO,M,1,0.001%,1.0,1,
TINA,F,1,0.001%,1.0,1,
TITO,M,1,0.001%,1.0,1,
TIZIANO,M,1,0.001%,1.0,1,
TONINA,F,1,0.001%,1.0,1,
TONIO,M,1,0.001%,1.0,1,
TULLIA,F,1,0.001%,1.0,1,
UBERTO,M,1,0.001%,1.0,1,
ULDERICO,M,1,0.001%,1.0,1,
UMBERTO,M,1,0.001%,1.0,1,
URBANO,M,1,0.001%,1.0,1,
#VALENTINO,M,1,0.001%,1.0,1,
#VALERIO,M,1,0.001%,1.0,1,
VANDA,F,1,0.001%,1.0,1,
VANNA,F,1,0.001%,1.0,1,
VASCO,M,1,0.001%,1.0,1,
VENCESLAO,M,1,0.001%,1.0,1,
#VERONICA,F,1,0.001%,1.0,1,
VICO,M,1,0.001%,1.0,1,
VINCENTE,M,1,0.001%,1.0,1,
#VINCENZO,M,1,0.001%,1.0,1,
#VIOLA,F,1,0.001%,1.0,1,
VIRGILIO,M,1,0.001%,1.0,1,
#VISSENTA,F,1,0.001%,1.0,1,
VITA,F,1,0.001%,1.0,1,
VITALIA,F,1,0.001%,1.0,1,
VITTORE,M,1,0.001%,1.0,1,
VITTORINO,M,1,0.001%,1.0,1,
VIVIANA,F,1,0.001%,1.0,1,
ZAIRA,F,1,0.001%,1.0,1,
ZITA,F,1,0.001%,1.0,1,
