TOTAL:,1
TOTALM:,1
TOTALF:,1
NAME,GENDER,COUNT,PERCENT,PROP100K,ISNOCOUNT,COMMENT
AAGE,M,1,0.001%,1.0,1,
#ADAM,M,1,0.001%,1.0,1,
#ADRIAN,M,1,0.001%,1.0,1,
AGE|ÅGE,M,1,0.001%,1.0,1,
#AGNES,F,1,0.001%,1.0,1,
AGOT|ÅGOT,F,1,0.001%,1.0,1,
#AKSEL,M,1,0.001%,1.0,1,
ALBIN,M,1,0.001%,1.0,1,
ALEX,U,1,0.001%,1.0,1,
#ALEXANDRA,F,1,0.001%,1.0,1,
ALF,M,1,0.001%,1.0,1,
#ALFRED,M,1,0.001%,1.0,1,
#ALVA,F,1,0.001%,1.0,1,
AMUND,M,1,0.001%,1.0,1,
ANDOR,M,1,0.001%,1.0,1,
#ANDREAS,M,1,0.001%,1.0,1,
ANJA,F,1,0.001%,1.0,1,
ANNBJOERG|ANNBJØRG,F,1,0.001%,1.0,1,
ANNELIE,F,1,0.001%,1.0,1,
ANNIKEN,F,1,0.001%,1.0,1,
#ANTON,M,1,0.001%,1.0,1,
ARNBJOERG|ARNBJØRG,F,1,0.001%,1.0,1,
ARNFINN,M,1,0.001%,1.0,1,
#ARON,M,1,0.001%,1.0,1,
ARVID,M,1,0.001%,1.0,1,
ASE|ÅSE,F,1,0.001%,1.0,1,
ASLAUG,F,1,0.001%,1.0,1,
ASTA,F,1,0.001%,1.0,1,
AUDHILD,F,1,0.001%,1.0,1,
#AXEL,M,1,0.001%,1.0,1,
BARBARA,F,1,0.001%,1.0,1,
BEATA,F,1,0.001%,1.0,1,
#BENJAMIN,M,1,0.001%,1.0,1,
BERGLIOT,F,1,0.001%,1.0,1,
BERIT,F,1,0.001%,1.0,1,
BERNT,M,1,0.001%,1.0,1,
BIRGER,M,1,0.001%,1.0,1,
BIRGITTA,F,1,0.001%,1.0,1,
BJARNE,M,1,0.001%,1.0,1,
BJOERN|BJØRN,M,1,0.001%,1.0,1,
BORGHILD,F,1,0.001%,1.0,1,
BRITA,F,1,0.001%,1.0,1,
BRITTA,F,1,0.001%,1.0,1,
BRYNJAR,M,1,0.001%,1.0,1,
CAJ,M,1,0.001%,1.0,1,
CARINA,F,1,0.001%,1.0,1,
#CAROLINE,F,1,0.001%,1.0,1,
CATHRINE,F,1,0.001%,1.0,1,
CECILIE,F,1,0.001%,1.0,1,
CHRISTEN,M,1,0.001%,1.0,1,
CHRISTIN,F,1,0.001%,1.0,1,
CHRISTINE,F,1,0.001%,1.0,1,
CLEMENS,M,1,0.001%,1.0,1,
DAGFINN,M,1,0.001%,1.0,1,
DAGNY,F,1,0.001%,1.0,1,
DAN,M,1,0.001%,1.0,1,
#DANIEL,M,1,0.001%,1.0,1,
DIANA,F,1,0.001%,1.0,1,
EA,F,1,0.001%,1.0,1,
EBBE,M,1,0.001%,1.0,1,
#EDVARD,M,1,0.001%,1.0,1,
EGIL,M,1,0.001%,1.0,1,
EINAR,M,1,0.001%,1.0,1,
EIR,F,1,0.001%,1.0,1,
#EIRIK,M,1,0.001%,1.0,1,
ELEONORA,F,1,0.001%,1.0,1,
#ELIAS,M,1,0.001%,1.0,1,
ELISABET,F,1,0.001%,1.0,1,
#ELISE,F,1,0.001%,1.0,1,
#ELLINOR,F,1,0.001%,1.0,1,
EMANUEL,M,1,0.001%,1.0,1,
#EMIL,M,1,0.001%,1.0,1,
#EMILIE,F,1,0.001%,1.0,1,
ENDRE,M,1,0.001%,1.0,1,
#ERIK,M,1,0.001%,1.0,1,
#ERLE,F,1,0.001%,1.0,1,
ERLING,M,1,0.001%,1.0,1,
ERNA,F,1,0.001%,1.0,1,
ESBEN,M,1,0.001%,1.0,1,
ESTER,F,1,0.001%,1.0,1,
#EVA,F,1,0.001%,1.0,1,
#FELIX,M,1,0.001%,1.0,1,
FINN,M,1,0.001%,1.0,1,
FRANS,M,1,0.001%,1.0,1,
#FRIDA,F,1,0.001%,1.0,1,
FRITJOF,M,1,0.001%,1.0,1,
FROEYA|FRØYA,F,1,0.001%,1.0,1,
GEIR,M,1,0.001%,1.0,1,
GERD,F,1,0.001%,1.0,1,
GERHARD,M,1,0.001%,1.0,1,
GJURD,M,1,0.001%,1.0,1,
GOERAN|GØRAN,M,1,0.001%,1.0,1,
GRETE,F,1,0.001%,1.0,1,
GRO,F,1,0.001%,1.0,1,
GUDBRAND,M,1,0.001%,1.0,1,
GUDRUN,F,1,0.001%,1.0,1,
GULL,F,1,0.001%,1.0,1,
GUNHILD,F,1,0.001%,1.0,1,
GUNNAR,M,1,0.001%,1.0,1,
GUNNHILD,F,1,0.001%,1.0,1,
GUNVOR,F,1,0.001%,1.0,1,
HAAKON,M,1,0.001%,1.0,1,
HALDOR,M,1,0.001%,1.0,1,
HALLE,M,1,0.001%,1.0,1,
HALSTEIN,M,1,0.001%,1.0,1,
HALVDAN,M,1,0.001%,1.0,1,
#HANNA,F,1,0.001%,1.0,1,
HANNE,U,1,0.001%,1.0,1,
HANS,M,1,0.001%,1.0,1,
HAVARD|HÅVARD,M,1,0.001%,1.0,1,
HEDVIG,F,1,0.001%,1.0,1,
HEIDI,F,1,0.001%,1.0,1,
#HELENA,F,1,0.001%,1.0,1,
HELGA,F,1,0.001%,1.0,1,
HELLA,F,1,0.001%,1.0,1,
HENNING,M,1,0.001%,1.0,1,
#HENRIK,M,1,0.001%,1.0,1,
HERLEIF,M,1,0.001%,1.0,1,
HILDA,F,1,0.001%,1.0,1,
HILDEGARD,F,1,0.001%,1.0,1,
HJALMAR,M,1,0.001%,1.0,1,
HOLGER,M,1,0.001%,1.0,1,
HULDA,F,1,0.001%,1.0,1,
INA,F,1,0.001%,1.0,1,
INGE,U,1,0.001%,1.0,1,
#INGEBORG,F,1,0.001%,1.0,1,
INGER,F,1,0.001%,1.0,1,
#INGRID,F,1,0.001%,1.0,1,
INGVILD,F,1,0.001%,1.0,1,
IRIS,F,1,0.001%,1.0,1,
#ISAK,M,1,0.001%,1.0,1,
#JACOB,M,1,0.001%,1.0,1,
#JAKOB,M,1,0.001%,1.0,1,
JANNE,F,1,0.001%,1.0,1,
JANNIKE,F,1,0.001%,1.0,1,
JARLE,M,1,0.001%,1.0,1,
#JENS,M,1,0.001%,1.0,1,
JOAKIM,M,1,0.001%,1.0,1,
#JOHANNA,F,1,0.001%,1.0,1,
#JOHANNES,M,1,0.001%,1.0,1,
#JONAS,M,1,0.001%,1.0,1,
#JONATHAN,M,1,0.001%,1.0,1,
JOERG|JØRG,M,1,0.001%,1.0,1,
JOERN|JØRN,M,1,0.001%,1.0,1,
JORUNN,F,1,0.001%,1.0,1,
#JOSEFINE,F,1,0.001%,1.0,1,
#JULIA,F,1,0.001%,1.0,1,
KAI,M,1,0.001%,1.0,1,
KAJ,M,1,0.001%,1.0,1,
KAMILLA,F,1,0.001%,1.0,1,
KAREN,F,1,0.001%,1.0,1,
KARIN,F,1,0.001%,1.0,1,
KARINE,F,1,0.001%,1.0,1,
KARLA,F,1,0.001%,1.0,1,
#KAROLINE,F,1,0.001%,1.0,1,
#KASPER,M,1,0.001%,1.0,1,
KATHARINA,F,1,0.001%,1.0,1,
KATJA,F,1,0.001%,1.0,1,
KAY,M,1,0.001%,1.0,1,
KENNETH,M,1,0.001%,1.0,1,
#KEVIN,M,1,0.001%,1.0,1,
KINE,F,1,0.001%,1.0,1,
KJELL,M,1,0.001%,1.0,1,
KJERSTI,F,1,0.001%,1.0,1,
KJETIL,M,1,0.001%,1.0,1,
KLAUS,M,1,0.001%,1.0,1,
KNUTE,M,1,0.001%,1.0,1,
KRISTEN,M,1,0.001%,1.0,1,
KRISTIN,F,1,0.001%,1.0,1,
#KRISTINE,F,1,0.001%,1.0,1,
LAILA,F,1,0.001%,1.0,1,
LASSE,M,1,0.001%,1.0,1,
LAURITS,M,1,0.001%,1.0,1,
#LEA,F,1,0.001%,1.0,1,
LEIV,M,1,0.001%,1.0,1,
LENE,F,1,0.001%,1.0,1,
#LEO,M,1,0.001%,1.0,1,
#LINA,F,1,0.001%,1.0,1,
LINE,F,1,0.001%,1.0,1,
#LINUS,M,1,0.001%,1.0,1,
#LISA,F,1,0.001%,1.0,1,
LISE,F,1,0.001%,1.0,1,
#LIV,F,1,0.001%,1.0,1,
LORENS,M,1,0.001%,1.0,1,
LOVISE,F,1,0.001%,1.0,1,
#LUDVIG,M,1,0.001%,1.0,1,
MAGDA,F,1,0.001%,1.0,1,
MAGNE,M,1,0.001%,1.0,1,
#MAGNUS,M,1,0.001%,1.0,1,
#MAJA,F,1,0.001%,1.0,1,
MALENE,F,1,0.001%,1.0,1,
#MARCUS,M,1,0.001%,1.0,1,
MARGARETA,F,1,0.001%,1.0,1,
MARGRETE,F,1,0.001%,1.0,1,
#MARI,F,1,0.001%,1.0,1,
MARIANNE,F,1,0.001%,1.0,1,
MARINA,F,1,0.001%,1.0,1,
MARITA,F,1,0.001%,1.0,1,
MARK,M,1,0.001%,1.0,1,
MARTE,F,1,0.001%,1.0,1,
MARTHE,F,1,0.001%,1.0,1,
#MARTINE,F,1,0.001%,1.0,1,
#MATHILDE,F,1,0.001%,1.0,1,
MATTEUS,M,1,0.001%,1.0,1,
#MAX,M,1,0.001%,1.0,1,
META,F,1,0.001%,1.0,1,
#MIA,F,1,0.001%,1.0,1,
#MIKAEL,M,1,0.001%,1.0,1,
#MIKKEL,M,1,0.001%,1.0,1,
MILLY,F,1,0.001%,1.0,1,
MONIKA,F,1,0.001%,1.0,1,
NANNA,F,1,0.001%,1.0,1,
NILS,M,1,0.001%,1.0,1,
NJAL|NJÅL,M,1,0.001%,1.0,1,
#NORA,F,1,0.001%,1.0,1,
ODD,M,1,0.001%,1.0,1,
OEIVIND|ØIVIND,M,1,0.001%,1.0,1,
OLAF,M,1,0.001%,1.0,1,
#OLE,M,1,0.001%,1.0,1,
#OLIVER,M,1,0.001%,1.0,1,
OERJAN|ØRJAN,M,1,0.001%,1.0,1,
#OSKAR,M,1,0.001%,1.0,1,
OTTO,M,1,0.001%,1.0,1,
ØYDIS|OEYDIS,F,1,0.001%,1.0,1,
OEYVIND|ØYVIND,M,1,0.001%,1.0,1,
PAUL,M,1,0.001%,1.0,1,
PAULINE,F,1,0.001%,1.0,1,
PEER,M,1,0.001%,1.0,1,
#PERNILLE,F,1,0.001%,1.0,1,
#PETTER,M,1,0.001%,1.0,1,
PIA,F,1,0.001%,1.0,1,
PREBEN,M,1,0.001%,1.0,1,
RAGNAR,M,1,0.001%,1.0,1,
RAGNVALD,M,1,0.001%,1.0,1,
RALF,M,1,0.001%,1.0,1,
RANDI,F,1,0.001%,1.0,1,
REBEKKA,F,1,0.001%,1.0,1,
REGINE,F,1,0.001%,1.0,1,
REIDUN,F,1,0.001%,1.0,1,
RIKARD,M,1,0.001%,1.0,1,
ROALD,M,1,0.001%,1.0,1,
ROBERT,M,1,0.001%,1.0,1,
ROLF,M,1,0.001%,1.0,1,
RUBEN,M,1,0.001%,1.0,1,
RUNA,F,1,0.001%,1.0,1,
RUTH,F,1,0.001%,1.0,1,
#SAMUEL,M,1,0.001%,1.0,1,
SANDRA,F,1,0.001%,1.0,1,
#SEBASTIAN,M,1,0.001%,1.0,1,
SEVERIN,M,1,0.001%,1.0,1,
SIGMUND,M,1,0.001%,1.0,1,
SIGNY,F,1,0.001%,1.0,1,
SIGRUN,F,1,0.001%,1.0,1,
#SILJE,F,1,0.001%,1.0,1,
#SIMON,M,1,0.001%,1.0,1,
SIRI,F,1,0.001%,1.0,1,
SJURD,M,1,0.001%,1.0,1,
#SOFIA,F,1,0.001%,1.0,1,
#SOLVEIG,F,1,0.001%,1.0,1,
SONJA,F,1,0.001%,1.0,1,
STEFAN,M,1,0.001%,1.0,1,
STEIN,M,1,0.001%,1.0,1,
STEN,M,1,0.001%,1.0,1,
STIG,M,1,0.001%,1.0,1,
STINE,F,1,0.001%,1.0,1,
#SUNNIVA,F,1,0.001%,1.0,1,
SUSANNE,F,1,0.001%,1.0,1,
SVANTE,M,1,0.001%,1.0,1,
SVEN,M,1,0.001%,1.0,1,
#SVERRE,M,1,0.001%,1.0,1,
SYLVIA,F,1,0.001%,1.0,1,
SYNNØVE|SYNNOEVE,F,1,0.001%,1.0,1,
TANJA,F,1,0.001%,1.0,1,
TEA,F,1,0.001%,1.0,1,
TERESA,F,1,0.001%,1.0,1,
TERJE,M,1,0.001%,1.0,1,
#THEODOR,M,1,0.001%,1.0,1,
THERESE,F,1,0.001%,1.0,1,
THOR,M,1,0.001%,1.0,1,
THORBJOERN|THORBJØRN,M,1,0.001%,1.0,1,
THORSTEIN,M,1,0.001%,1.0,1,
THYRA,F,1,0.001%,1.0,1,
TINE,F,1,0.001%,1.0,1,
TOLLAK,M,1,0.001%,1.0,1,
TONE,F,1,0.001%,1.0,1,
TORA,F,1,0.001%,1.0,1,
TORBJOERN|TORBJØRN,M,1,0.001%,1.0,1,
TORDIS,F,1,0.001%,1.0,1,
TORGEIR,M,1,0.001%,1.0,1,
TORGILS,M,1,0.001%,1.0,1,
TORIL,F,1,0.001%,1.0,1,
TORKEL,M,1,0.001%,1.0,1,
TORMOD,M,1,0.001%,1.0,1,
TOROE|TORØ,F,1,0.001%,1.0,1,
TORVALD,M,1,0.001%,1.0,1,
TROND,M,1,0.001%,1.0,1,
TRULS,M,1,0.001%,1.0,1,
TURID,F,1,0.001%,1.0,1,
TYRA,F,1,0.001%,1.0,1,
ULLA,F,1,0.001%,1.0,1,
ULRIKKE,F,1,0.001%,1.0,1,
URSULA,F,1,0.001%,1.0,1,
VALENTIN,M,1,0.001%,1.0,1,
VANJA,U,1,0.001%,1.0,1,
VERA,F,1,0.001%,1.0,1,
VERONIKA,F,1,0.001%,1.0,1,
VIBEKE,F,1,0.001%,1.0,1,
VIDAR,M,1,0.001%,1.0,1,
#VIKTOR,M,1,0.001%,1.0,1,
VILHELM,M,1,0.001%,1.0,1,
VIOLA,F,1,0.001%,1.0,1,
VIVIAN,U,1,0.001%,1.0,1,
WALTER,M,1,0.001%,1.0,1,
#YLVA,F,1,0.001%,1.0,1,
YNGVE,M,1,0.001%,1.0,1,
