TOTAL:,176664
TOTALM:,0
TOTALF:,0
NAME,GENDER,COUNT,PERCENT,PROP100K,ISNOCOUNT,COMMENT
FERNANDEZ,,11509,6.514626636%,6514.626635874,0,
RODRIGUEZ,,10706,6.060091473%,6060.091473079,0,
GONZALEZ,,9749,5.518385183%,5518.385183173,0,
GARCIA,,8514,4.819318027%,4819.318027442,0,
LOPEZ,,8384,4.745732011%,4745.732011049,0,
MARTINEZ,,6411,3.628922701%,3628.922700720,0,
PEREZ,,6379,3.610809220%,3610.809219762,0,
ALVAREZ,,5012,2.837023955%,2837.023955079,0,
GOMEZ,,4808,2.721550514%,2721.550513970,0,
SANCHEZ,,4622,2.616265906%,2616.265905901,0,
DIAZ,,4466,2.527962686%,2527.962686229,0,
VAZQUEZ,,3083,1.745120681%,1745.120681067,0,
CASTRO,,2558,1.447946384%,1447.946384096,0,
ROMERO,,2509,1.420210116%,1420.210116379,0,
SUAREZ,,2413,1.365869674%,1365.869673505,0,
BLANCO,,2066,1.169451614%,1169.451614364,0,
RUIZ,,2029,1.148507902%,1148.507902006,0,
ALONSO,,1949,1.103224200%,1103.224199611,0,
TORRES,,1930,1.092469320%,1092.469320292,0,
DOMINGUEZ,,1736,0.982656342%,982.656341982,0,
GUTIERREZ,,1638,0.927183807%,927.183806548,0,
SOSA,,1613,0.913032650%,913.032649549,0,
IGLESIAS,,1550,0.877371734%,877.371733913,0,
GIMENEZ,,1507,0.853031744%,853.031743875,0,
RAMIREZ,,1502,0.850201512%,850.201512476,0,
MARTIN,,1463,0.828125708%,828.125707558,0,
VARELA,,1382,0.782275959%,782.275958882,0,
RAMOS,,1374,0.777747589%,777.747588643,0,
NUÑEZ|NUNEZ,,1372,0.776615496%,776.615496083,0,
ROSSI,,1366,0.773219218%,773.219218403,0,
SILVA,,1364,0.772087126%,772.087125843,0,
MENDEZ,,1337,0.756803876%,756.803876285,0,
HERNANDEZ,,1308,0.740388534%,740.388534167,0,
FLORES,,1307,0.739822488%,739.822487887,0,
PEREYRA,,1259,0.712652266%,712.652266449,0,
FERRARI,,1257,0.711520174%,711.520173889,0,
ORTIZ,,1225,0.693406693%,693.406692931,0,
MEDINA,,1202,0.680387628%,680.387628492,0,
BENITEZ,,1200,0.679255536%,679.255535933,0,
HERRERA,,1180,0.667934610%,667.934610334,0,
ARIAS,,1168,0.661142055%,661.142054974,0,
ACOSTA,,1155,0.653783453%,653.783453335,0,
MORENO,,1149,0.650387176%,650.387175655,0,
AGUIRRE,,1143,0.646990898%,646.990897976,0,
OTERO,,1131,0.640198343%,640.198342616,0,
CABRERA,,1092,0.618122538%,618.122537699,0,
REY,,1088,0.615858353%,615.858352579,0,
ROJAS,,1086,0.614726260%,614.726260019,0,
VIDAL,,1062,0.601141149%,601.141149300,0,
MOLINA,,1044,0.590952316%,590.952316261,0,
RUSSO,,1041,0.589254177%,589.254177422,0,
PAZ,,1006,0.569442558%,569.442557623,0,
VEGA,,998,0.564914187%,564.914187384,0,
COSTA,,965,0.546234660%,546.234660146,0,
BRUNO,,947,0.536045827%,536.045827107,0,
ROMANO,,934,0.528687225%,528.687225468,0,
MORALES,,933,0.528121179%,528.121179188,0,
RIOS,,920,0.520762578%,520.762577548,0,
MIRANDA,,888,0.502649097%,502.649096590,0,
MUÑOZ|MUNOZ,,884,0.500384911%,500.384911470,0,
FRANCO,,866,0.490196078%,490.196078431,0,
CASTILLO,,863,0.488497940%,488.497939592,0,
CAMPOS,,861,0.487365847%,487.365847032,0,
BIANCHI,,851,0.481705384%,481.705384232,0,
LUNA,,806,0.456233302%,456.233301635,0,
CORREA,,799,0.452270978%,452.270977675,0,
FERREYRA,,796,0.450572839%,450.572838835,0,
NAVARRO,,774,0.438119821%,438.119820677,0,
QUIROGA,,754,0.426798895%,426.798895078,0,
COLOMBO,,741,0.419440293%,419.440293438,0,
COHEN,,733,0.414911923%,414.911923199,0,
PEREIRA,,726,0.410949599%,410.949599239,0,
VERA,,726,0.410949599%,410.949599239,0,
LORENZO,,718,0.406421229%,406.421229000,0,
GIL,,717,0.405855183%,405.855182720,0,
SANTOS,,711,0.402458905%,402.458905040,0,
DELGADO,,705,0.399062627%,399.062627360,0,
GODOY,,703,0.397930535%,397.930534801,0,
RIVAS,,700,0.396232396%,396.232395961,0,
RIVERO,,696,0.393968211%,393.968210841,0,
GALLO,,690,0.390571933%,390.571933161,0,
PERALTA,,684,0.387175655%,387.175655482,0,
SOTO,,681,0.385477517%,385.477516642,0,
FIGUEROA,,669,0.378684961%,378.684961282,0,
JUAREZ,,665,0.376420776%,376.420776163,0,
MARINO,,662,0.374722637%,374.722637323,0,
PONCE,,650,0.367930082%,367.930081964,0,
CALVO,,645,0.365099851%,365.099850564,0,
IBAÑEZ|IBANEZ,,618,0.349816601%,349.816601005,0,
CACERES,,615,0.348118462%,348.118462165,0,
CARRIZO,,614,0.347552416%,347.552415886,0,
VARGAS,,607,0.343590092%,343.590091926,0,
MENDOZA,,606,0.343024046%,343.024045646,0,
AGUILAR,,604,0.341891953%,341.891953086,0,
LEDESMA,,601,0.340193814%,340.193814246,0,
GUZMAN,,597,0.337929629%,337.929629127,0,
SORIA,,588,0.332835213%,332.835212607,0,
VILLALBA,,585,0.331137074%,331.137073767,0,
PRIETO,,583,0.330004981%,330.004981207,0,
MALDONADO,,581,0.328872889%,328.872888647,0,
