TOTAL:,1
TOTALM:,1
TOTALF:,1
NAME,GENDER,COUNT,PERCENT,PROP100K,ISNOCOUNT,COMMENT
#ADOMAS,M,1,0.001%,1.0,1,
ALBERTAS,M,1,0.001%,1.0,1,
ALDONA,F,1,0.001%,1.0,1,
ALFREDAS,M,1,0.001%,1.0,1,
ANDRIUS,M,1,0.001%,1.0,1,
ARAS,M,1,0.001%,1.0,1,
AUDRA,F,1,0.001%,1.0,1,
AUGUSTINAS,M,1,0.001%,1.0,1,
AURELIJUS,M,1,0.001%,1.0,1,
#AUSTEJA|AUSTĖJA,F,1,0.001%,1.0,1,
BARBORA,F,1,0.001%,1.0,1,
BENEDIKTAS,M,1,0.001%,1.0,1,
BIRUTE|BIRUTĖ,F,1,0.001%,1.0,1,
BRONIUS,M,1,0.001%,1.0,1,
DAIVA,F,1,0.001%,1.0,1,
#DANIELIUS,M,1,0.001%,1.0,1,
DARIJUS,M,1,0.001%,1.0,1,
DAUMANTAS,M,1,0.001%,1.0,1,
#DOMINYKAS,M,1,0.001%,1.0,1,
#DOVYDAS,M,1,0.001%,1.0,1,
EDITA,F,1,0.001%,1.0,1,
ELENA,F,1,0.001%,1.0,1,
ELZE|ELZĖ,F,1,0.001%,1.0,1,
#EMILIS,M,1,0.001%,1.0,1,
ERNESTA,F,1,0.001%,1.0,1,
ESTERA,F,1,0.001%,1.0,1,
#GABIJA,F,1,0.001%,1.0,1,
#GABRIELIUS,M,1,0.001%,1.0,1,
GIEDRE|GIEDRĖ,F,1,0.001%,1.0,1,
GINTARAS,M,1,0.001%,1.0,1,
GVIDAS,M,1,0.001%,1.0,1,
#HERKUS,M,1,0.001%,1.0,1,
IGNAS,M,1,0.001%,1.0,1,
INGA,F,1,0.001%,1.0,1,
IRMA,F,1,0.001%,1.0,1,
JANINA,F,1,0.001%,1.0,1,
JELENA,F,1,0.001%,1.0,1,
JOLANTA,F,1,0.001%,1.0,1,
JUDITA,F,1,0.001%,1.0,1,
JUOZAPAS,M,1,0.001%,1.0,1,
JURGIS,M,1,0.001%,1.0,1,
JUSTINAS,M,1,0.001%,1.0,1,
#KAMILĖ|KAMILE,F,1,0.001%,1.0,1,
KAROLIS,M,1,0.001%,1.0,1,
KATRE|KATRĖ,F,1,0.001%,1.0,1,
KESTUTIS|KĘSTUTIS,M,1,0.001%,1.0,1,
KRISTIJONAS,M,1,0.001%,1.0,1,
#KRISTUPAS,M,1,0.001%,1.0,1,
LAIMUTE|LAIMUTĖ,F,1,0.001%,1.0,1,
#LEJA|LĖJA,F,1,0.001%,1.0,1,
LILIJA,F,1,0.001%,1.0,1,
LINAS,M,1,0.001%,1.0,1,
LIUDVIKA,F,1,0.001%,1.0,1,
#LUKAS,M,1,0.001%,1.0,1,
MARIJA,F,1,0.001%,1.0,1,
MARIJUS,M,1,0.001%,1.0,1,
#MATAS,M,1,0.001%,1.0,1,
MIGLE|MIGLĖ,F,1,0.001%,1.0,1,
MINDAUGAS,M,1,0.001%,1.0,1,
MONIKA,F,1,0.001%,1.0,1,
MYKOLAS,M,1,0.001%,1.0,1,
ODETA,F,1,0.001%,1.0,1,
PAULINA,F,1,0.001%,1.0,1,
PETRAS,M,1,0.001%,1.0,1,
PRANCISKUS|PRANCIŠKUS,M,1,0.001%,1.0,1,
RAMUNAS|RAMŪNAS,M,1,0.001%,1.0,1,
REGINA,F,1,0.001%,1.0,1,
ROBERTAS,M,1,0.001%,1.0,1,
ROZE|ROŽĖ,F,1,0.001%,1.0,1,
SANDRA,F,1,0.001%,1.0,1,
SAULIUS,M,1,0.001%,1.0,1,
SIMONAS,M,1,0.001%,1.0,1,
#SOFIJA,F,1,0.001%,1.0,1,
STANISLOVAS,M,1,0.001%,1.0,1,
SVAJONE|SVAJONĖ,F,1,0.001%,1.0,1,
TATJANA,F,1,0.001%,1.0,1,
TOMAS,M,1,0.001%,1.0,1,
URTĖ|URTE,F,1,0.001%,1.0,1,
VALDAS,M,1,0.001%,1.0,1,
VALERIJA,F,1,0.001%,1.0,1,
VIKTORAS,M,1,0.001%,1.0,1,
VILHELMAS,M,1,0.001%,1.0,1,
VILTAUTAS,M,1,0.001%,1.0,1,
#VILTE|VILTĖ,F,1,0.001%,1.0,1,
VIOLETA,F,1,0.001%,1.0,1,
VISVALDAS,M,1,0.001%,1.0,1,
VITALIJA,F,1,0.001%,1.0,1,
VLADIMIRAS,M,1,0.001%,1.0,1,
VYGANTAS,M,1,0.001%,1.0,1,
ZYDRUNAS|ŽYDRŪNAS,M,1,0.001%,1.0,1,
