TOTAL:,1
TOTALM:,1
TOTALF:,1
NAME,GENDER,COUNT,PERCENT,PROP100K,ISNOCOUNT,COMMENT
#ABRAHAMSEN,,1,0.001%,1.0,1,
ADAMSEN,,1,0.001%,1.0,1,
ALBERTSEN,,1,0.001%,1.0,1,
#AMUNDSEN,,1,0.001%,1.0,1,
ANKER,,1,0.001%,1.0,1,
#ANTONSEN,,1,0.001%,1.0,1,
ARUD|ÅRUD,,1,0.001%,1.0,1,
BAARDSEN,,1,0.001%,1.0,1,
#BERG,,1,0.001%,1.0,1,
#CHRISTIANSEN,,1,0.001%,1.0,1,
#DANIELSEN,,1,0.001%,1.0,1,
FALK,,1,0.001%,1.0,1,
#GULBRANDSEN,,1,0.001%,1.0,1,
HAGEBAK,,1,0.001%,1.0,1,
#HANSEN,,1,0.001%,1.0,1,
#HAUGEN,,1,0.001%,1.0,1,
HOLGERSEN,,1,0.001%,1.0,1,
HORN,,1,0.001%,1.0,1,
HUMMEL,,1,0.001%,1.0,1,
#JAKOBSEN,,1,0.001%,1.0,1,
#JOHANSEN,,1,0.001%,1.0,1,
#KRISTIANSEN,,1,0.001%,1.0,1,
LANDVIK,,1,0.001%,1.0,1,
LANGE,,1,0.001%,1.0,1,
LOSNEDAHL,,1,0.001%,1.0,1,
#NESS|NÆSS,,1,0.001%,1.0,1,
NASS,,1,0.001%,1.0,1,
#NILSEN,,1,0.001%,1.0,1,
OLIVERSEN,,1,0.001%,1.0,1,
OSTBERG,,1,0.001%,1.0,1,
OVESEN,,1,0.001%,1.0,1,
PREBENSEN,,1,0.001%,1.0,1,
#RASMUSSEN,,1,0.001%,1.0,1,
#RUUD,,1,0.001%,1.0,1,
#SIMONSEN,,1,0.001%,1.0,1,
#SOLBERG,,1,0.001%,1.0,1,
SPILLUM,,1,0.001%,1.0,1,
STORSTRAND,,1,0.001%,1.0,1,
#SVENDSEN,,1,0.001%,1.0,1,
TENNFJORD,,1,0.001%,1.0,1,
VANG,,1,0.001%,1.0,1,
VOLL,,1,0.001%,1.0,1,
WANG,,1,0.001%,1.0,1,
