TOTAL:,1
TOTALM:,1
TOTALF:,1
NAME,GENDER,COUNT,PERCENT,PROP100K,ISNOCOUNT,COMMENT
SATO,,1,0.001%,1.0,1,
SUZUKI,,1,0.001%,1.0,1,
TAKAHASHI,,1,0.001%,1.0,1,
TANAKA,,1,0.001%,1.0,1,
WATANABE,,1,0.001%,1.0,1,
#ITO,,1,0.001%,1.0,1,
#YAMAMOTO,,1,0.001%,1.0,1,
#NAKAMURA,,1,0.001%,1.0,1,
#KOBAYASHI,,1,0.001%,1.0,1,
KATO,,1,0.001%,1.0,1,
YOSHIDA,,1,0.001%,1.0,1,
#YAMADA,,1,0.001%,1.0,1,
#SASAKI,,1,0.001%,1.0,1,
YAMAGUCHI,,1,0.001%,1.0,1,
SAITO,,1,0.001%,1.0,1,
#MATSUMOTO,,1,0.001%,1.0,1,
#INOUE,,1,0.001%,1.0,1,
#KIMURA,,1,0.001%,1.0,1,
HAYASHI,,1,0.001%,1.0,1,
#SHIMIZU,,1,0.001%,1.0,1,
#YAMAZAKI,,1,0.001%,1.0,1,
#MORI,,1,0.001%,1.0,1,
#ABE,,1,0.001%,1.0,1,
IKEDA,,1,0.001%,1.0,1,
#HASHIMOTO,,1,0.001%,1.0,1,
#YAMASHITA,,1,0.001%,1.0,1,
ISHIKAWA,,1,0.001%,1.0,1,
NAKAJIMA,,1,0.001%,1.0,1,
MAEDA,,1,0.001%,1.0,1,
FUJITA,,1,0.001%,1.0,1,
OGAWA,,1,0.001%,1.0,1,
GOTO,,1,0.001%,1.0,1,
OKADA,,1,0.001%,1.0,1,
HASEGAWA,,1,0.001%,1.0,1,
MURAKAMI,,1,0.001%,1.0,1,
KONDO,,1,0.001%,1.0,1,
ISHII,,1,0.001%,1.0,1,
SAKAMOTO,,1,0.001%,1.0,1,
ENDO,,1,0.001%,1.0,1,
AOKI,,1,0.001%,1.0,1,
FUJII,,1,0.001%,1.0,1,
NISHIMURA,,1,0.001%,1.0,1,
FUKUDA,,1,0.001%,1.0,1,
OTA,,1,0.001%,1.0,1,
MIURA,,1,0.001%,1.0,1,
FUJIWARA,,1,0.001%,1.0,1,
OKAMOTO,,1,0.001%,1.0,1,
MATSUDA,,1,0.001%,1.0,1,
NAKAGAWA,,1,0.001%,1.0,1,
NAKANO,,1,0.001%,1.0,1,
HARADA,,1,0.001%,1.0,1,
ONO,,1,0.001%,1.0,1,
TAMURA,,1,0.001%,1.0,1,
TAKEUCHI,,1,0.001%,1.0,1,
KANEKO,,1,0.001%,1.0,1,
WADA,,1,0.001%,1.0,1,
NAKAYAMA,,1,0.001%,1.0,1,
ISHIDA,,1,0.001%,1.0,1,
UEDA,,1,0.001%,1.0,1,
MORITA,,1,0.001%,1.0,1,
HARA,,1,0.001%,1.0,1,
SHIBATA,,1,0.001%,1.0,1,
SAKAI,,1,0.001%,1.0,1,
KUDO,,1,0.001%,1.0,1,
YOKOYAMA,,1,0.001%,1.0,1,
MIYAZAKI,,1,0.001%,1.0,1,
#MIYAMOTO,,1,0.001%,1.0,1,
UCHIDA,,1,0.001%,1.0,1,
TAKAGI,,1,0.001%,1.0,1,
ANDO,,1,0.001%,1.0,1,
TANIGUCHI,,1,0.001%,1.0,1,
OHNO,,1,0.001%,1.0,1,
MARUYAMA,,1,0.001%,1.0,1,
IMAI,,1,0.001%,1.0,1,
TAKADA,,1,0.001%,1.0,1,
FUJIMOTO,,1,0.001%,1.0,1,
TAKEDA,,1,0.001%,1.0,1,
MURATA,,1,0.001%,1.0,1,
#UENO,,1,0.001%,1.0,1,
SUGIYAMA,,1,0.001%,1.0,1,
MASUDA,,1,0.001%,1.0,1,
SUGAWARA,,1,0.001%,1.0,1,
HIRANO,,1,0.001%,1.0,1,
KOJIMA,,1,0.001%,1.0,1,
OTSUKA,,1,0.001%,1.0,1,
CHIBA,,1,0.001%,1.0,1,
KUBO,,1,0.001%,1.0,1,
MATSUI,,1,0.001%,1.0,1,
IWASAKI,,1,0.001%,1.0,1,
SAKURAI,,1,0.001%,1.0,1,
KINOSHITA,,1,0.001%,1.0,1,
NOGUCHI,,1,0.001%,1.0,1,
MATSUO,,1,0.001%,1.0,1,
NOMURA,,1,0.001%,1.0,1,
KIKUCHI,,1,0.001%,1.0,1,
SANO,,1,0.001%,1.0,1,
ONISHI,,1,0.001%,1.0,1,
SUGIMOTO,,1,0.001%,1.0,1,
ARAI,,1,0.001%,1.0,1,
