TOTAL:,1
TOTALM:,1
TOTALF:,1
NAME,GENDER,COUNT,PERCENT,PROP100K,ISNOCOUNT,COMMENT
#ABEL,M,1,0.001%,1.0,1,
ACHILLE,M,1,0.001%,1.0,1,
ADELAIDE|ADÉLAÏDE,F,1,0.001%,1.0,1,
ADELE|ADÈLE,F,1,0.001%,1.0,1,
#ADOLPHE,M,1,0.001%,1.0,1,
ADRIENNE,F,1,0.001%,1.0,1,
AGLAE|AGLAÉ,F,1,0.001%,1.0,1,
#AIME|AIMÉ,M,1,0.001%,1.0,1,
#ALAIN,M,1,0.001%,1.0,1,
#ALBAN,M,1,0.001%,1.0,1,
ALBERTE,F,1,0.001%,1.0,1,
#ALBIN,M,1,0.001%,1.0,1,
ALCIDE,M,1,0.001%,1.0,1,
ALDRIC,M,1,0.001%,1.0,1,
ALEXANDRA,F,1,0.001%,1.0,1,
ALEXANDRIE,F,1,0.001%,1.0,1,
ALEXIA,F,1,0.001%,1.0,1,
#ALFRED,M,1,0.001%,1.0,1,
#ALINE,F,1,0.001%,1.0,1,
#ALIX,F,1,0.001%,1.0,1,
ALPHONSINE,F,1,0.001%,1.0,1,
#AMAND,M,1,0.001%,1.0,1,
AMARANTE,F,1,0.001%,1.0,1,
AMBRE,F,1,0.001%,1.0,1,
AMÉDÉE|AMEDEE,M,1,0.001%,1.0,1,
AMOUR,U,1,0.001%,1.0,1,
ANASTASIE,F,1,0.001%,1.0,1,
#ANDRÉ|ANDRE,M,1,0.001%,1.0,1,
ANGELE|ANGÈLE,F,1,0.001%,1.0,1,
#ANGELIQUE|ANGÉLIQUE,F,1,0.001%,1.0,1,
ANNABELLE,F,1,0.001%,1.0,1,
ANNETTE,F,1,0.001%,1.0,1,
ANNIE,F,1,0.001%,1.0,1,
#ANSELME,M,1,0.001%,1.0,1,
#ANTOINE,M,1,0.001%,1.0,1,
ANTONIN,M,1,0.001%,1.0,1,
APOLLINE,F,1,0.001%,1.0,1,
ARIANNE,F,1,0.001%,1.0,1,
ARIELLE,F,1,0.001%,1.0,1,
ARLETTE,F,1,0.001%,1.0,1,
ARMEL,M,1,0.001%,1.0,1,
#ARNAUD,M,1,0.001%,1.0,1,
#ARSENE|ARSÈNE,M,1,0.001%,1.0,1,
ASTRID,F,1,0.001%,1.0,1,
ATHENAIS|ATHÉNAÏS,F,1,0.001%,1.0,1,
#AUBIN,M,1,0.001%,1.0,1,
#AUGUSTE,M,1,0.001%,1.0,1,
AUGUSTINE,F,1,0.001%,1.0,1,
AURELIE|AURÉLIE,F,1,0.001%,1.0,1,
AURORE,F,1,0.001%,1.0,1,
AXELLE,F,1,0.001%,1.0,1,
BABYLAS,M,1,0.001%,1.0,1,
#BARBARA,F,1,0.001%,1.0,1,
#BARTHELEMY|BARTHÉLÉMY,M,1,0.001%,1.0,1,
#BASTIEN,M,1,0.001%,1.0,1,
BEATRICE|BÉATRICE,F,1,0.001%,1.0,1,
#BENJAMIN,M,1,0.001%,1.0,1,
#BENOIT|BENOÎT,M,1,0.001%,1.0,1,
#BERENGER|BÉRENGER,M,1,0.001%,1.0,1,
BERENICE|BÉRÉNICE,F,1,0.001%,1.0,1,
#BERNARD,M,1,0.001%,1.0,1,
#BERTHE,F,1,0.001%,1.0,1,
#BERTRAND,M,1,0.001%,1.0,1,
#BLANCHE,F,1,0.001%,1.0,1,
#BONIFACE,M,1,0.001%,1.0,1,
BRIGITTE,F,1,0.001%,1.0,1,
#CALIXTE,M,1,0.001%,1.0,1,
CANDIDE,U,1,0.001%,1.0,1,
CARINE,F,1,0.001%,1.0,1,
CAROLINE,F,1,0.001%,1.0,1,
CASSANDRA,F,1,0.001%,1.0,1,
CECILE|CÉCILE,F,1,0.001%,1.0,1,
CELESTE|CÉLESTE,U,1,0.001%,1.0,1,
CELESTINE|CÉLESTINE,F,1,0.001%,1.0,1,
CERISE,F,1,0.001%,1.0,1,
#CESAR|CÉSAR,M,1,0.001%,1.0,1,
#CHARLES,M,1,0.001%,1.0,1,
#CHARLOT,M,1,0.001%,1.0,1,
CHLOE|CHLOÉ,F,1,0.001%,1.0,1,
#CHRISTIAN,M,1,0.001%,1.0,1,
CHRISTINE,F,1,0.001%,1.0,1,
#CLAIR,M,1,0.001%,1.0,1,
#CLARISSE,F,1,0.001%,1.0,1,
CLAUDETTE,F,1,0.001%,1.0,1,
CLAUDINE,F,1,0.001%,1.0,1,
#CLÉMENT|CLEMENT,M,1,0.001%,1.0,1,
CLOE|CLOÉ,F,1,0.001%,1.0,1,
CLOTILDE,F,1,0.001%,1.0,1,
#COLETTE,F,1,0.001%,1.0,1,
COLOMBE,F,1,0.001%,1.0,1,
CONSTANCE,F,1,0.001%,1.0,1,
#CONSTANTIN,M,1,0.001%,1.0,1,
CORENTIN,M,1,0.001%,1.0,1,
CORINNE,F,1,0.001%,1.0,1,
CORNÉLIE|CORNELIE,F,1,0.001%,1.0,1,
#COSME,M,1,0.001%,1.0,1,
CYPRIEN,M,1,0.001%,1.0,1,
#CYRIL,M,1,0.001%,1.0,1,
#DAMIEN,M,1,0.001%,1.0,1,
#DANIEL,M,1,0.001%,1.0,1,
DANIELLE,F,1,0.001%,1.0,1,
DAPHNEE|DAPHNÉE,F,1,0.001%,1.0,1,
DEBORA|DÉBORA,F,1,0.001%,1.0,1,
DELPHINE,F,1,0.001%,1.0,1,
#DENIS,M,1,0.001%,1.0,1,
DEODAT|DÉODAT,M,1,0.001%,1.0,1,
DÉSIRÉE|DESIREE,F,1,0.001%,1.0,1,
DIANNE,F,1,0.001%,1.0,1,
#DIEUDONNE|DIEUDONNÉ,M,1,0.001%,1.0,1,
DIMITRI,M,1,0.001%,1.0,1,
#DOMINIQUE,U,1,0.001%,1.0,1,
#DONAT,M,1,0.001%,1.0,1,
DONATIENNE,F,1,0.001%,1.0,1,
DORIANE,F,1,0.001%,1.0,1,
EDGAR,M,1,0.001%,1.0,1,
EDITH|ÉDITH,F,1,0.001%,1.0,1,
EDMEE|EDMÉE,F,1,0.001%,1.0,1,
EDMONDE,F,1,0.001%,1.0,1,
EDWIGE,F,1,0.001%,1.0,1,
ELIANE|ÉLIANE,F,1,0.001%,1.0,1,
#ELISABETH|ÉLISABETH,F,1,0.001%,1.0,1,
ELODIE|ÉLODIE,F,1,0.001%,1.0,1,
ELOISE|ÉLOÏSE,F,1,0.001%,1.0,1,
ELVIRE,F,1,0.001%,1.0,1,
EMERIC|ÉMERIC,M,1,0.001%,1.0,1,
#EMILIE|ÉMILIE,F,1,0.001%,1.0,1,
EMILIENNE|ÉMILIENNE,F,1,0.001%,1.0,1,
#EMMANUEL,M,1,0.001%,1.0,1,
ENZO,M,1,0.001%,1.0,1,
#ERNEST,M,1,0.001%,1.0,1,
ERWAN,M,1,0.001%,1.0,1,
ESTELLE,F,1,0.001%,1.0,1,
ETHAN,M,1,0.001%,1.0,1,
ETIENNETTE|ÉTIENNETTE,F,1,0.001%,1.0,1,
EUGÉNIE|EUGENIE,F,1,0.001%,1.0,1,
EUPHRASIE,F,1,0.001%,1.0,1,
EVARISTE|ÉVARISTE,M,1,0.001%,1.0,1,
EVELINE,F,1,0.001%,1.0,1,
#EVRARD|ÉVRARD,M,1,0.001%,1.0,1,
FABIENNE,F,1,0.001%,1.0,1,
FANNY,F,1,0.001%,1.0,1,
FELICIE|FÉLICIE,F,1,0.001%,1.0,1,
FELICIENNE|FÉLICIENNE,F,1,0.001%,1.0,1,
#FÉLIX|FELIX,M,1,0.001%,1.0,1,
#FERNAND,M,1,0.001%,1.0,1,
#FIACRE,M,1,0.001%,1.0,1,
#FIRMIN,M,1,0.001%,1.0,1,
FLAVIEN,M,1,0.001%,1.0,1,
FLEUR,F,1,0.001%,1.0,1,
FLORE,F,1,0.001%,1.0,1,
#FLORENT,M,1,0.001%,1.0,1,
FLORENTINE,F,1,0.001%,1.0,1,
#FLORIAN,M,1,0.001%,1.0,1,
FLORIANNE,F,1,0.001%,1.0,1,
#FRANCE,F,1,0.001%,1.0,1,
FRANCINE,F,1,0.001%,1.0,1,
FRANCISQUE,M,1,0.001%,1.0,1,
#FRANCOIS|FRANÇOIS,M,1,0.001%,1.0,1,
#FRANK,M,1,0.001%,1.0,1,
FRAÑSEZA|FRANSEZA,F,1,0.001%,1.0,1,
#FREDERIC|FRÉDÉRIC,M,1,0.001%,1.0,1,
FULBERT,M,1,0.001%,1.0,1,
#GABRIEL,M,1,0.001%,1.0,1,
GAEL|GAËL,M,1,0.001%,1.0,1,
GAETAN|GAÉTAN,M,1,0.001%,1.0,1,
GAETANE|GAÉTANE,F,1,0.001%,1.0,1,
#GASPARD,M,1,0.001%,1.0,1,
#GAUBERT,M,1,0.001%,1.0,1,
#GAUTHIER,M,1,0.001%,1.0,1,
GENEVIEVE|GENEVIÈVE,F,1,0.001%,1.0,1,
#GEOFFROY,M,1,0.001%,1.0,1,
GEORGETTE,F,1,0.001%,1.0,1,
#GÉRALD|GERALD,M,1,0.001%,1.0,1,
#GERARD|GÉRARD,M,1,0.001%,1.0,1,
#GERMAIN,M,1,0.001%,1.0,1,
#GERVAIS,M,1,0.001%,1.0,1,
#GHISLAIN,M,1,0.001%,1.0,1,
GHYSLAIN,M,1,0.001%,1.0,1,
#GIGI,F,1,0.001%,1.0,1,
GILBERTE,F,1,0.001%,1.0,1,
GINETTE,F,1,0.001%,1.0,1,
GISELLE,F,1,0.001%,1.0,1,
#GRATIEN,M,1,0.001%,1.0,1,
GUENIEVRE|GUENIÈVRE,F,1,0.001%,1.0,1,
#GUSTAVE,M,1,0.001%,1.0,1,
GWENAEL|GWENAËL,M,1,0.001%,1.0,1,
GWENDOLINE,F,1,0.001%,1.0,1,
GWILHERM,M,1,0.001%,1.0,1,
HANNAH,F,1,0.001%,1.0,1,
#HECTOR,M,1,0.001%,1.0,1,
HELOISE|HÉLOÏSE,F,1,0.001%,1.0,1,
HENRIETTE,F,1,0.001%,1.0,1,
HERCULE,M,1,0.001%,1.0,1,
#HERVE|HERVÉ,M,1,0.001%,1.0,1,
HIPPOLYTE,M,1,0.001%,1.0,1,
HONORINE,F,1,0.001%,1.0,1,
HORTENSE,F,1,0.001%,1.0,1,
#HUGUES,M,1,0.001%,1.0,1,
#HUMBERT,M,1,0.001%,1.0,1,
#IGNACE,M,1,0.001%,1.0,1,
IRENE|IRÈNE,F,1,0.001%,1.0,1,
IRIS,F,1,0.001%,1.0,1,
#ISABELLE,F,1,0.001%,1.0,1,
#ISIDORE,M,1,0.001%,1.0,1,
JACKY,M,1,0.001%,1.0,1,
#JACQUES,M,1,0.001%,1.0,1,
JADE,F,1,0.001%,1.0,1,
#JASMIN,M,1,0.001%,1.0,1,
JASON,M,1,0.001%,1.0,1,
#JEAN-BAPTISTE,M,1,0.001%,1.0,1,
JEANINE,F,1,0.001%,1.0,1,
#JEANNE,F,1,0.001%,1.0,1,
JEANNINE,F,1,0.001%,1.0,1,
JEREMIE|JÉRÉMIE,M,1,0.001%,1.0,1,
JESSE|JESSÉ,M,1,0.001%,1.0,1,
#JOACHIM,M,1,0.001%,1.0,1,
JOCELINE,F,1,0.001%,1.0,1,
JOCELYNE,F,1,0.001%,1.0,1,
JOEL|JOËL,M,1,0.001%,1.0,1,
JOFFREY,M,1,0.001%,1.0,1,
JONATHAN,M,1,0.001%,1.0,1,
#JOSEPH,M,1,0.001%,1.0,1,
JOSEPHINE|JOSÉPHINE,F,1,0.001%,1.0,1,
JOSIANE,F,1,0.001%,1.0,1,
#JOSSELIN,M,1,0.001%,1.0,1,
JOSUE|JOSUÉ,M,1,0.001%,1.0,1,
JUDICAËL|JUDICAEL,M,1,0.001%,1.0,1,
JUDITH,F,1,0.001%,1.0,1,
#JULES,M,1,0.001%,1.0,1,
#JULIE,F,1,0.001%,1.0,1,
#JULIENNE,F,1,0.001%,1.0,1,
#JUSTE,M,1,0.001%,1.0,1,
JUSTINE,F,1,0.001%,1.0,1,
KATARIN,F,1,0.001%,1.0,1,
KEVIN,M,1,0.001%,1.0,1,
#KILLIAN,M,1,0.001%,1.0,1,
LAETITIA,F,1,0.001%,1.0,1,
#LARA,F,1,0.001%,1.0,1,
#LAURENCE,F,1,0.001%,1.0,1,
#LAURENTIN,M,1,0.001%,1.0,1,
LAURETTE,F,1,0.001%,1.0,1,
#LAZARE,M,1,0.001%,1.0,1,
LEANDRE|LÉANDRE,M,1,0.001%,1.0,1,
#LEON|LÉON,M,1,0.001%,1.0,1,
LEONCE|LÉONCE,M,1,0.001%,1.0,1,
LEONIDE|LÉONIDE,U,1,0.001%,1.0,1,
LEONNE|LÉONNE,F,1,0.001%,1.0,1,
#LEOPOLD|LÉOPOLD,M,1,0.001%,1.0,1,
#LILI,F,1,0.001%,1.0,1,
LILIANE,F,1,0.001%,1.0,1,
LILOU,F,1,0.001%,1.0,1,
#LINE,F,1,0.001%,1.0,1,
LISE,F,1,0.001%,1.0,1,
LIVIE,F,1,0.001%,1.0,1,
LOANE,F,1,0.001%,1.0,1,
LOIC|LOÏC,M,1,0.001%,1.0,1,
LOTHAIRE,M,1,0.001%,1.0,1,
LOUANE,F,1,0.001%,1.0,1,
#LOUISE,F,1,0.001%,1.0,1,
LOUNA,F,1,0.001%,1.0,1,
#LUC,M,1,0.001%,1.0,1,
#LUCE,F,1,0.001%,1.0,1,
LUCIE,F,1,0.001%,1.0,1,
LUCIENNE,F,1,0.001%,1.0,1,
LUCILLE,F,1,0.001%,1.0,1,
LUCRECE|LUCRÈCE,U,1,0.001%,1.0,1,
LUDOVIC,M,1,0.001%,1.0,1,
LYLOU,F,1,0.001%,1.0,1,
#MADELINE,F,1,0.001%,1.0,1,
MAEL,M,1,0.001%,1.0,1,
MAELLE|MAËLLE,F,1,0.001%,1.0,1,
MAEVA,F,1,0.001%,1.0,1,
MAGALIE,F,1,0.001%,1.0,1,
#MAIA|MAÏA,F,1,0.001%,1.0,1,
#MANON,F,1,0.001%,1.0,1,
#MANUEL,M,1,0.001%,1.0,1,
#MARCEL,M,1,0.001%,1.0,1,
MARCELINE,F,1,0.001%,1.0,1,
MARCELLETTE,F,1,0.001%,1.0,1,
MARCELLINE,F,1,0.001%,1.0,1,
#MARGOT,F,1,0.001%,1.0,1,
#MARI,F,1,0.001%,1.0,1,
#MARIE,F,1,0.001%,1.0,1,
#MARIETTE,F,1,0.001%,1.0,1,
MARILOU,F,1,0.001%,1.0,1,
#MARINE,F,1,0.001%,1.0,1,
MARISE,F,1,0.001%,1.0,1,
MARJOLAINE,F,1,0.001%,1.0,1,
#MARTHE,F,1,0.001%,1.0,1,
#MARTINE,F,1,0.001%,1.0,1,
#MATEO|MATÉO,M,1,0.001%,1.0,1,
#MATHIAS,M,1,0.001%,1.0,1,
MATHILDE,F,1,0.001%,1.0,1,
MATHYS,M,1,0.001%,1.0,1,
#MATTHIEU,M,1,0.001%,1.0,1,
MAXENCE,M,1,0.001%,1.0,1,
MAXIMILIEN,M,1,0.001%,1.0,1,
MAYLIS,F,1,0.001%,1.0,1,
MELINA|MÉLINA,F,1,0.001%,1.0,1,
MELISANDE|MÉLISANDE,F,1,0.001%,1.0,1,
MELODIE|MÉLODIE,F,1,0.001%,1.0,1,
MICHAEL|MICHAËL,M,1,0.001%,1.0,1,
MICHELE|MICHÈLE,F,1,0.001%,1.0,1,
MICHELLE,F,1,0.001%,1.0,1,
MIRABELLE,F,1,0.001%,1.0,1,
#MODESTE,U,1,0.001%,1.0,1,
#MOÏSE|MOISE,M,1,0.001%,1.0,1,
#MORGAN,U,1,0.001%,1.0,1,
MURIEL,F,1,0.001%,1.0,1,
MYLENE|MYLÈNE,F,1,0.001%,1.0,1,
NADÈGE|NADEGE,F,1,0.001%,1.0,1,
NADINE,F,1,0.001%,1.0,1,
NARCISSE,U,1,0.001%,1.0,1,
NATHALIE,F,1,0.001%,1.0,1,
NATHANAEL|NATHANAËL,M,1,0.001%,1.0,1,
NICEPHORE|NICÉPHORE,M,1,0.001%,1.0,1,
#NICOLAS,M,1,0.001%,1.0,1,
NICOLETTE,F,1,0.001%,1.0,1,
NINETTE,F,1,0.001%,1.0,1,
#NOE|NOÉ,M,1,0.001%,1.0,1,
NOÈLE|NOELE,F,1,0.001%,1.0,1,
NOELLE|NOËLLE,F,1,0.001%,1.0,1,
NOLWENN,F,1,0.001%,1.0,1,
OANEZ,F,1,0.001%,1.0,1,
OCTAVE,M,1,0.001%,1.0,1,
ODILE,F,1,0.001%,1.0,1,
#OLIVIE,F,1,0.001%,1.0,1,
OLYMPE,F,1,0.001%,1.0,1,
OPHELIE|OPHÉLIE,F,1,0.001%,1.0,1,
ORIANNE,F,1,0.001%,1.0,1,
OSCAR,M,1,0.001%,1.0,1,
PAOL,M,1,0.001%,1.0,1,
PASCALE,F,1,0.001%,1.0,1,
#PATRICE,M,1,0.001%,1.0,1,
#PAUL,M,1,0.001%,1.0,1,
PAULETTE,F,1,0.001%,1.0,1,
PENELOPE|PÉNÉLOPE,F,1,0.001%,1.0,1,
PERIG,M,1,0.001%,1.0,1,
PERRINE,F,1,0.001%,1.0,1,
PHARAMOND,M,1,0.001%,1.0,1,
#PHILIBERT,M,1,0.001%,1.0,1,
PHILIPPINE,F,1,0.001%,1.0,1,
#PIERRE,M,1,0.001%,1.0,1,
PIERRICK,M,1,0.001%,1.0,1,
#PONS,M,1,0.001%,1.0,1,
PRISCILLE,F,1,0.001%,1.0,1,
PRUDENCE,U,1,0.001%,1.0,1,
#QUENTIN,M,1,0.001%,1.0,1,
RAINIER,M,1,0.001%,1.0,1,
#RAPHAEL|RAPHAËL,M,1,0.001%,1.0,1,
#RAYMOND,M,1,0.001%,1.0,1,
REBECCA|RÉBECCA,F,1,0.001%,1.0,1,
#REGIS|RÉGIS,M,1,0.001%,1.0,1,
#RÉMI|REMI,M,1,0.001%,1.0,1,
#RENARD,M,1,0.001%,1.0,1,
#RENE|RENÉ,M,1,0.001%,1.0,1,
#REYNAUD,M,1,0.001%,1.0,1,
#ROBERT,M,1,0.001%,1.0,1,
#ROCH,M,1,0.001%,1.0,1,
RODOLPHE,M,1,0.001%,1.0,1,
#ROGER,M,1,0.001%,1.0,1,
ROLANDE,F,1,0.001%,1.0,1,
ROMAINE,F,1,0.001%,1.0,1,
ROPARZH,M,1,0.001%,1.0,1,
ROSALIE,F,1,0.001%,1.0,1,
ROSELLE,F,1,0.001%,1.0,1,
ROSETTE,F,1,0.001%,1.0,1,
ROXANE,F,1,0.001%,1.0,1,
ROZENN,F,1,0.001%,1.0,1,
SABINE,F,1,0.001%,1.0,1,
#SALOME|SALOMÉ,F,1,0.001%,1.0,1,
#SAMSON,M,1,0.001%,1.0,1,
SANDRA,F,1,0.001%,1.0,1,
SARA,F,1,0.001%,1.0,1,
SASHA,U,1,0.001%,1.0,1,
#SEBASTIEN|SÉBASTIEN,M,1,0.001%,1.0,1,
SÉGOLÈNE|SEGOLENE,F,1,0.001%,1.0,1,
#SERAPHIN|SÉRAPHIN,M,1,0.001%,1.0,1,
SERGE,M,1,0.001%,1.0,1,
#SEVERE|SÉVÈRE,M,1,0.001%,1.0,1,
SEVERINE|SÉVÉRINE,F,1,0.001%,1.0,1,
SIBYLLE,F,1,0.001%,1.0,1,
#SIMON,M,1,0.001%,1.0,1,
SIXTE,M,1,0.001%,1.0,1,
SOLANGE,F,1,0.001%,1.0,1,
#SOPHIE,F,1,0.001%,1.0,1,
#STEPHANE|STÉPHANE,M,1,0.001%,1.0,1,
#SUZANNE,F,1,0.001%,1.0,1,
SYBILLE,F,1,0.001%,1.0,1,
SYLVAINE,F,1,0.001%,1.0,1,
SYLVIANE,F,1,0.001%,1.0,1,
SYLVIE,F,1,0.001%,1.0,1,
TELESPHORE|TÉLESPHORE,M,1,0.001%,1.0,1,
#THEODORE|THÉODORE,M,1,0.001%,1.0,1,
THEOTIME|THÉOTIME,M,1,0.001%,1.0,1,
#THIBAULT,M,1,0.001%,1.0,1,
#THOMAS,M,1,0.001%,1.0,1,
TIMOTHEE|TIMOTHÉE,M,1,0.001%,1.0,1,
TIPHANIE,F,1,0.001%,1.0,1,
#TOUSSAINT,M,1,0.001%,1.0,1,
ULYSSE,M,1,0.001%,1.0,1,
#VAAST,M,1,0.001%,1.0,1,
VALENTINE,F,1,0.001%,1.0,1,
VALERIAN|VALÉRIAN,M,1,0.001%,1.0,1,
#VALERIE|VALÉRIE,F,1,0.001%,1.0,1,
VERENE|VÉRÈNE,F,1,0.001%,1.0,1,
VESPASIEN,M,1,0.001%,1.0,1,
#VICTOR,M,1,0.001%,1.0,1,
#VIENNE,F,1,0.001%,1.0,1,
#VIOLETTE,F,1,0.001%,1.0,1,
VIVIANE,F,1,0.001%,1.0,1,
#VIVIEN,M,1,0.001%,1.0,1,
WANDA,F,1,0.001%,1.0,1,
#XAVIER,M,1,0.001%,1.0,1,
YANN,M,1,0.001%,1.0,1,
YANNICK,U,1,0.001%,1.0,1,
YOLANDE,F,1,0.001%,1.0,1,
#YVES,M,1,0.001%,1.0,1,
#YVON,M,1,0.001%,1.0,1,
#ZACHARIE,M,1,0.001%,1.0,1,
ZEPHYRINE|ZÉPHYRINE,F,1,0.001%,1.0,1,
