TOTAL:,1
TOTALM:,1
TOTALF:,1
NAME,GENDER,COUNT,PERCENT,PROP100K,ISNOCOUNT,COMMENT
ACHESON,,1,0.001%,1.0,1,
#AITKEN,,1,0.001%,1.0,1,
#ALLAN,,1,0.001%,1.0,1,
#ALLEN,,1,0.001%,1.0,1,
#BAIRD,,1,0.001%,1.0,1,
#BEATTIE,,1,0.001%,1.0,1,
#BEGBIE,,1,0.001%,1.0,1,
#BLAIR,,1,0.001%,1.0,1,
#BRECKENRIDGE,,1,0.001%,1.0,1,
#BRODIE,,1,0.001%,1.0,1,
#BRUCE,,1,0.001%,1.0,1,
#BURNS,,1,0.001%,1.0,1,
#CAMERON,,1,0.001%,1.0,1,
#CARR,,1,0.001%,1.0,1,
CLACHER,,1,0.001%,1.0,1,
#COCKBURN,,1,0.001%,1.0,1,
#COUTTS,,1,0.001%,1.0,1,
#CRUICKSHANK,,1,0.001%,1.0,1,
#CUNNINGHAM,,1,0.001%,1.0,1,
#DAVID,,1,0.001%,1.0,1,
#DAVIS,,1,0.001%,1.0,1,
#DOUGLAS,,1,0.001%,1.0,1,
#DRUMMOND,,1,0.001%,1.0,1,
#DUFF,,1,0.001%,1.0,1,
#DUNBAR,,1,0.001%,1.0,1,
#DUNCANSON,,1,0.001%,1.0,1,
#EWART,,1,0.001%,1.0,1,
#FAIRBAIRN,,1,0.001%,1.0,1,
#FERGUSON,,1,0.001%,1.0,1,
FINLEY,,1,0.001%,1.0,1,
#FRASER,,1,0.001%,1.0,1,
#GIBBS,,1,0.001%,1.0,1,
#GLEN,,1,0.001%,1.0,1,
#GORDON,,1,0.001%,1.0,1,
#GRAHAM,,1,0.001%,1.0,1,
#GRANT,,1,0.001%,1.0,1,
#GRIER,,1,0.001%,1.0,1,
#HAMBLEDON,,1,0.001%,1.0,1,
#HAMELDON,,1,0.001%,1.0,1,
#HARDIE,,1,0.001%,1.0,1,
#HENDRY,,1,0.001%,1.0,1,
HOLME,,1,0.001%,1.0,1,
#HOUSTON,,1,0.001%,1.0,1,
#HUME,,1,0.001%,1.0,1,
#IRVINE,,1,0.001%,1.0,1,
#JACK,,1,0.001%,1.0,1,
#JOHNSTON,,1,0.001%,1.0,1,
#KEITH,,1,0.001%,1.0,1,
#KENDRICK,,1,0.001%,1.0,1,
#KIDD,,1,0.001%,1.0,1,
#KINNAIRD,,1,0.001%,1.0,1,
#LENNOX,,1,0.001%,1.0,1,
LESLEY,,1,0.001%,1.0,1,
LESTER,,1,0.001%,1.0,1,
#LINDSEY,,1,0.001%,1.0,1,
#LITHGOW,,1,0.001%,1.0,1,
#LOW,,1,0.001%,1.0,1,
LOWRY,,1,0.001%,1.0,1,
LYNE,,1,0.001%,1.0,1,
MAC AN ABA,,1,0.001%,1.0,1,
MAC AN FLEISDEIR,,1,0.001%,1.0,1,
MAC AN TSAGAIRT,,1,0.001%,1.0,1,
#MAC AODHA,,1,0.001%,1.0,1,
MACBAY,,1,0.001%,1.0,1,
#MAC CABA|MAC CÁBA,,1,0.001%,1.0,1,
MACCALLION,,1,0.001%,1.0,1,
MACCANCE,,1,0.001%,1.0,1,
MAC CIONAODHA,,1,0.001%,1.0,1,
#MACCLELLAND,,1,0.001%,1.0,1,
MAC COLUIM,,1,0.001%,1.0,1,
MAC CORMAIC,,1,0.001%,1.0,1,
MACCRUMB,,1,0.001%,1.0,1,
MAC DHUBHGHAILL,,1,0.001%,1.0,1,
#MACDONALD,,1,0.001%,1.0,1,
#MAC DUIBHSHITHE|MAC DUIBHSHÍTHE,,1,0.001%,1.0,1,
MACEACHTHIGHEARNA,,1,0.001%,1.0,1,
MAC EANRAIG,,1,0.001%,1.0,1,
MAC EOGHAIN,,1,0.001%,1.0,1,
#MACFARLANE,,1,0.001%,1.0,1,
MAC GILLEAIN,,1,0.001%,1.0,1,
#MACGREGOR,,1,0.001%,1.0,1,
MACGRORY,,1,0.001%,1.0,1,
#MACIOMHAIR,,1,0.001%,1.0,1,
#MACKAY,,1,0.001%,1.0,1,
MACKENNY,,1,0.001%,1.0,1,
#MACLEAN,,1,0.001%,1.0,1,
MAC LEOID|MAC LEÒID,,1,0.001%,1.0,1,
#MAC NEACHTAIN,,1,0.001%,1.0,1,
#MAC NEILL|MAC NÉILL,,1,0.001%,1.0,1,
#MACQUEEN,,1,0.001%,1.0,1,
MAC REACHTAIN,,1,0.001%,1.0,1,
MACSHUIBHNE,,1,0.001%,1.0,1,
MACWILLIAM,,1,0.001%,1.0,1,
#MAG RAITH,,1,0.001%,1.0,1,
#MASTERS,,1,0.001%,1.0,1,
#MATHIESON,,1,0.001%,1.0,1,
#MCADAMS,,1,0.001%,1.0,1,
#MCALISTER,,1,0.001%,1.0,1,
#MCCABE,,1,0.001%,1.0,1,
#MCCALLUM,,1,0.001%,1.0,1,
#MCCLELLAND,,1,0.001%,1.0,1,
#MCCORMICK,,1,0.001%,1.0,1,
#MCCRACKEN,,1,0.001%,1.0,1,
MCCREERY,,1,0.001%,1.0,1,
MCDANIEL,,1,0.001%,1.0,1,
#MCDOUGALL,,1,0.001%,1.0,1,
#MCEWAN,,1,0.001%,1.0,1,
#MCFARLANE,,1,0.001%,1.0,1,
#MCGEE,,1,0.001%,1.0,1,
#MCGREGOR,,1,0.001%,1.0,1,
#MCIVER,,1,0.001%,1.0,1,
#MCKELLAR,,1,0.001%,1.0,1,
#MCKENNA,,1,0.001%,1.0,1,
#MCKINLEY,,1,0.001%,1.0,1,
#MCLAIN,,1,0.001%,1.0,1,
#MCLEOD,,1,0.001%,1.0,1,
MCNABB,,1,0.001%,1.0,1,
#MCNEAL,,1,0.001%,1.0,1,
#MCNEILL,,1,0.001%,1.0,1,
#MCPHEE,,1,0.001%,1.0,1,
#MCRAE,,1,0.001%,1.0,1,
#MCTAGGART,,1,0.001%,1.0,1,
#MELVILLE,,1,0.001%,1.0,1,
MEYRICK,,1,0.001%,1.0,1,
#MITCHELL,,1,0.001%,1.0,1,
MONROE,,1,0.001%,1.0,1,
MORAY,,1,0.001%,1.0,1,
#MUNRO,,1,0.001%,1.0,1,
#MURDOCH,,1,0.001%,1.0,1,
#NEIL,,1,0.001%,1.0,1,
#NEVIN,,1,0.001%,1.0,1,
#NORRIS,,1,0.001%,1.0,1,
#OLIVER,,1,0.001%,1.0,1,
#PATTERSON,,1,0.001%,1.0,1,
#PAYNE,,1,0.001%,1.0,1,
#RALSTON,,1,0.001%,1.0,1,
#RAMSEY,,1,0.001%,1.0,1,
#READY,,1,0.001%,1.0,1,
#ROSE,,1,0.001%,1.0,1,
#ROWE,,1,0.001%,1.0,1,
RUSKIN,,1,0.001%,1.0,1,
RUTHERFURD,,1,0.001%,1.0,1,
#SAUNDERS,,1,0.001%,1.0,1,
#SCOTT,,1,0.001%,1.0,1,
SKEATES,,1,0.001%,1.0,1,
STARRETT,,1,0.001%,1.0,1,
#STEWART,,1,0.001%,1.0,1,
STROUD,,1,0.001%,1.0,1,
#STUART,,1,0.001%,1.0,1,
#SUTHERLAND,,1,0.001%,1.0,1,
#THORBURN,,1,0.001%,1.0,1,
#TURNBULL,,1,0.001%,1.0,1,
#URQUHART,,1,0.001%,1.0,1,
WALLIS,,1,0.001%,1.0,1,
#WOOD,,1,0.001%,1.0,1,
