TOTAL:,1
TOTALM:,1
TOTALF:,1
NAME,GENDER,COUNT,PERCENT,PROP100K,ISNOCOUNT,COMMENT
LANA,F,1,0.001%,1.0,1,
PETRA,F,1,0.001%,1.0,1,
ANA,F,1,0.001%,1.0,1,
EMA,F,1,0.001%,1.0,1,
LUCIJA,F,1,0.001%,1.0,1,
SARA,F,1,0.001%,1.0,1,
MIA,F,1,0.001%,1.0,1,
NIKA,F,1,0.001%,1.0,1,
MARIJA,F,1,0.001%,1.0,1,
IVA,F,1,0.001%,1.0,1,
LARA,F,1,0.001%,1.0,1,
LAURA,F,1,0.001%,1.0,1,
LORENA,F,1,0.001%,1.0,1,
DORA,F,1,0.001%,1.0,1,
MARTA,F,1,0.001%,1.0,1,
KARLA,F,1,0.001%,1.0,1,
LEA,F,1,0.001%,1.0,1,
KLARA,F,1,0.001%,1.0,1,
NINA,F,1,0.001%,1.0,1,
IVANA,F,1,0.001%,1.0,1,
LEONA,F,1,0.001%,1.0,1,
TEA,F,1,0.001%,1.0,1,
MATEA,F,1,0.001%,1.0,1,
HANA,F,1,0.001%,1.0,1,
MAGDALENA,F,1,0.001%,1.0,1,
MAJA,F,1,0.001%,1.0,1,
ENA,F,1,0.001%,1.0,1,
GABRIJELA,F,1,0.001%,1.0,1,
EVA,F,1,0.001%,1.0,1,
TARA,F,1,0.001%,1.0,1,
PAULA,F,1,0.001%,1.0,1,
NIKOLINA,F,1,0.001%,1.0,1,
TENA,F,1,0.001%,1.0,1,
ELENA,F,1,0.001%,1.0,1,
HELENA,F,1,0.001%,1.0,1,
GABRIELA,F,1,0.001%,1.0,1,
KATARINA,F,1,0.001%,1.0,1,
IVONA,F,1,0.001%,1.0,1,
JOSIPA,F,1,0.001%,1.0,1,
ANTONIJA,F,1,0.001%,1.0,1,
PAOLA,F,1,0.001%,1.0,1,
ANTEA,F,1,0.001%,1.0,1,
MARTINA,F,1,0.001%,1.0,1,
ANJA,F,1,0.001%,1.0,1,
KATJA,F,1,0.001%,1.0,1,
ELA,F,1,0.001%,1.0,1,
VALENTINA,F,1,0.001%,1.0,1,
ANAMARIJA,F,1,0.001%,1.0,1,
JANA,F,1,0.001%,1.0,1,
TIA,F,1,0.001%,1.0,1,
ANĐELA,F,1,0.001%,1.0,1,
JELENA,F,1,0.001%,1.0,1,
KIARA,F,1,0.001%,1.0,1,
DOROTEA,F,1,0.001%,1.0,1,
VERONIKA,F,1,0.001%,1.0,1,
MIHAELA,F,1,0.001%,1.0,1,
TINA,F,1,0.001%,1.0,1,
VITA,F,1,0.001%,1.0,1,
MARINA,F,1,0.001%,1.0,1,
MONIKA,F,1,0.001%,1.0,1,
PATRICIA,F,1,0.001%,1.0,1,
LEONARDA,F,1,0.001%,1.0,1,
ZARA,F,1,0.001%,1.0,1,
ANDREA,F,1,0.001%,1.0,1,
LUNA,F,1,0.001%,1.0,1,
BARBARA,F,1,0.001%,1.0,1,
FRANKA,F,1,0.001%,1.0,1,
LENA,F,1,0.001%,1.0,1,
TAMARA,F,1,0.001%,1.0,1,
TONKA,F,1,0.001%,1.0,1,
VANESA,F,1,0.001%,1.0,1,
ANTONIA,F,1,0.001%,1.0,1,
KORINA,F,1,0.001%,1.0,1,
ELLA,F,1,0.001%,1.0,1,
PATRICIJA,F,1,0.001%,1.0,1,
VIKTORIJA,F,1,0.001%,1.0,1,
IRIS,F,1,0.001%,1.0,1,
MAŠA|MASA,F,1,0.001%,1.0,1,
MARA,F,1,0.001%,1.0,1,
ANTONELA,F,1,0.001%,1.0,1,
KRISTINA,F,1,0.001%,1.0,1,
MANUELA,F,1,0.001%,1.0,1,
MILA,F,1,0.001%,1.0,1,
EMMA,F,1,0.001%,1.0,1,
INES,F,1,0.001%,1.0,1,
MELANI,F,1,0.001%,1.0,1,
MARIA,F,1,0.001%,1.0,1,
VANESSA,F,1,0.001%,1.0,1,
NATALI,F,1,0.001%,1.0,1,
BRUNA,F,1,0.001%,1.0,1,
NORA,F,1,0.001%,1.0,1,
UNA,F,1,0.001%,1.0,1,
ANA MARIJA,F,1,0.001%,1.0,1,
GITA,F,1,0.001%,1.0,1,
LUCIA,F,1,0.001%,1.0,1,
LORA,F,1,0.001%,1.0,1,
DUNJA,F,1,0.001%,1.0,1,
STELA,F,1,0.001%,1.0,1,
VIKTORIA,F,1,0.001%,1.0,1,
NELA,F,1,0.001%,1.0,1,
LUKA,M,1,0.001%,1.0,1,
IVAN,M,1,0.001%,1.0,1,
MARKO,M,1,0.001%,1.0,1,
DAVID,M,1,0.001%,1.0,1,
FILIP,M,1,0.001%,1.0,1,
JOSIP,M,1,0.001%,1.0,1,
PETAR,M,1,0.001%,1.0,1,
KARLO,M,1,0.001%,1.0,1,
MATEJ,M,1,0.001%,1.0,1,
IVANO,M,1,0.001%,1.0,1,
ROKO,M,1,0.001%,1.0,1,
LEON,M,1,0.001%,1.0,1,
MIHAEL,M,1,0.001%,1.0,1,
JAKOV,M,1,0.001%,1.0,1,
ANTONIO,M,1,0.001%,1.0,1,
FRAN,M,1,0.001%,1.0,1,
DOMINIK,M,1,0.001%,1.0,1,
MATEO,M,1,0.001%,1.0,1,
GABRIEL,M,1,0.001%,1.0,1,
ANTE,M,1,0.001%,1.0,1,
LOVRO,M,1,0.001%,1.0,1,
PATRIK,M,1,0.001%,1.0,1,
NIKO,M,1,0.001%,1.0,1,
NOA,M,1,0.001%,1.0,1,
MATIJA,M,1,0.001%,1.0,1,
BORNA,M,1,0.001%,1.0,1,
NIKOLA,M,1,0.001%,1.0,1,
JAN,M,1,0.001%,1.0,1,
MARIN,M,1,0.001%,1.0,1,
TONI,M,1,0.001%,1.0,1,
GABRIJEL,M,1,0.001%,1.0,1,
TIN,M,1,0.001%,1.0,1,
VITO,M,1,0.001%,1.0,1,
DINO,M,1,0.001%,1.0,1,
BRUNO,M,1,0.001%,1.0,1,
EMANUEL,M,1,0.001%,1.0,1,
LEO,M,1,0.001%,1.0,1,
STJEPAN,M,1,0.001%,1.0,1,
ANDREJ,M,1,0.001%,1.0,1,
DUJE,M,1,0.001%,1.0,1,
TOMISLAV,M,1,0.001%,1.0,1,
DOMAGOJ,M,1,0.001%,1.0,1,
KRISTIJAN,M,1,0.001%,1.0,1,
TEO,M,1,0.001%,1.0,1,
LUKAS,M,1,0.001%,1.0,1,
MARTIN,M,1,0.001%,1.0,1,
MARIO,M,1,0.001%,1.0,1,
DORIAN,M,1,0.001%,1.0,1,
ADRIAN,M,1,0.001%,1.0,1,
DARIO,M,1,0.001%,1.0,1,
LEONARDO,M,1,0.001%,1.0,1,
TOMA,M,1,0.001%,1.0,1,
JURAJ,M,1,0.001%,1.0,1,
SVEN,M,1,0.001%,1.0,1,
MARINO,M,1,0.001%,1.0,1,
RAFAEL,M,1,0.001%,1.0,1,
ANDRIJA,M,1,0.001%,1.0,1,
LOVRE,M,1,0.001%,1.0,1,
STIPE,M,1,0.001%,1.0,1,
ŠIMUN|SIMUN,M,1,0.001%,1.0,1,
VIKTOR,M,1,0.001%,1.0,1,
ERIK,M,1,0.001%,1.0,1,
DANIEL,M,1,0.001%,1.0,1,
MATE,M,1,0.001%,1.0,1,
MISLAV,M,1,0.001%,1.0,1,
ANTUN,M,1,0.001%,1.0,1,
DANIJEL,M,1,0.001%,1.0,1,
DORIJAN,M,1,0.001%,1.0,1,
JURE,M,1,0.001%,1.0,1,
ROBERT,M,1,0.001%,1.0,1,
ŠIME|SIME,M,1,0.001%,1.0,1,
BARTOL,M,1,0.001%,1.0,1,
DAMJAN,M,1,0.001%,1.0,1,
FRANE,M,1,0.001%,1.0,1,
NINO,M,1,0.001%,1.0,1,
VEDRAN,M,1,0.001%,1.0,1,
VID,M,1,0.001%,1.0,1,
ALEN,M,1,0.001%,1.0,1,
HRVOJE,M,1,0.001%,1.0,1,
FRANKO,M,1,0.001%,1.0,1,
ADAM,M,1,0.001%,1.0,1,
BENJAMIN,M,1,0.001%,1.0,1,
MAURO,M,1,0.001%,1.0,1,
JURICA,M,1,0.001%,1.0,1,
KRISTIAN,M,1,0.001%,1.0,1,
MARIJAN,M,1,0.001%,1.0,1,
MATKO,M,1,0.001%,1.0,1,
DENIS,M,1,0.001%,1.0,1,
ZVONIMIR,M,1,0.001%,1.0,1,
NOEL,M,1,0.001%,1.0,1,
VANJA,M,1,0.001%,1.0,1,
VALENTINO,M,1,0.001%,1.0,1,
ADRIANO,M,1,0.001%,1.0,1,
ARIAN,M,1,0.001%,1.0,1,
FRANJO,M,1,0.001%,1.0,1,
IVOR,M,1,0.001%,1.0,1,
SEBASTIAN,M,1,0.001%,1.0,1,
ANDRO,M,1,0.001%,1.0,1,
EMIL,M,1,0.001%,1.0,1,
ILIJA,M,1,0.001%,1.0,1,
