TOTAL:,1
TOTALM:,1
TOTALF:,1
NAME,GENDER,COUNT,PERCENT,PROP100K,ISNOCOUNT,COMMENT
AKSOY,,1,0.001%,1.0,1,
ASLAN,,1,0.001%,1.0,1,
BADEM,,1,0.001%,1.0,1,
BARDAKCI|BARDAKÇI,,1,0.001%,1.0,1,
BINICI|BİNİCİ,,1,0.001%,1.0,1,
DEGIRMENCI|DEĞIRMENCI,,1,0.001%,1.0,1,
DEMIRCI|DEMİRCİ,,1,0.001%,1.0,1,
KARGA,,1,0.001%,1.0,1,
KATIRCI,,1,0.001%,1.0,1,
KUCUK|KÜÇÜK,,1,0.001%,1.0,1,
MACAR,,1,0.001%,1.0,1,
MATARACI,,1,0.001%,1.0,1,
SADIK,,1,0.001%,1.0,1,
TEKE,,1,0.001%,1.0,1,
TERZI,,1,0.001%,1.0,1,
TIRYAKI,,1,0.001%,1.0,1,
YILMAZ,,1,0.001%,1.0,1,
